/* XPM */
static char * bottom_right_inactive_xpm[] = {
"36 35 15 1",
" 	c None",
".	c #010101",
"+	c #212121",
"@	c #151515",
"#	c #1C1C1C",
"$	c #1B1B1B",
"%	c #1A1A1A",
"&	c #101010",
"*	c #121212",
"=	c #141414",
"-	c #161616",
";	c #1D1D1D",
">	c #0C0C0C",
",	c #1E1E1E",
"'	c #1F1F1F",
"                                .+@.",
"                                .+@.",
"                                .+@.",
"                                .+@.",
"                                .+@.",
"                                .+@.",
"                                .+@.",
"                                .+@.",
"                                .+@.",
"                                .+@.",
"                                .+@.",
"                                .+@.",
"                                .+@.",
"                                .+@.",
"                                .+@.",
"                                .+@.",
"                                .+@.",
".................................+@.",
"+++++++++++++++++++++++++++++++++#@.",
"#################################$@.",
"##%%%%%%%%%%%%%%%%%%%%%%%%%%%%%%%$@.",
"+#$$$$$$$$$$$$$$$$$$$$$$$$$$$$.$$$@.",
".+$$$$$$$$$$$$$$$$$$$$$$$$$$$$$+$$@.",
"&.+#######$$$$$$$$$$$$$$$$$$.$.$$$@.",
"**.......+#$#################+#+#$@.",
"=========.+#$#############.#.#.##$@.",
"----------.+#$;;;;;;;;;;;;;+;+;+;$@.",
">>>>>>>>>>>.+#$;;;;;;;;;.;.;.;.;;$@.",
".............+#$;;;;;;;;;+;+;+;+;$@.",
"             .+#$,,,,,.,.,.,.,.,,$@.",
"              .+#$,,,,,+,+,+,+,+,$@.",
"               .+#$''''''''''''''$@.",
"                .+#$$$$$$$$$$$$$$$@.",
"                 .+$@@@@@@@@@@@@@@. ",
"                  ................  "};
