/* XPM */
static char * hide_pressed_xpm[] = {
"12 21 10 1",
" 	c None",
".	c #000000",
"+	c #131102",
"@	c #100D01",
"#	c #292304",
"$	c #171402",
"%	c #191502",
"&	c #1A1703",
"*	c #1C1803",
"=	c #332D06",
"            ",
"            ",
"            ",
"            ",
"            ",
"            ",
" .......... ",
".+@@@@@@@@@.",
".+++++++++#.",
".+++++++++#.",
".+$$$$$$$$#.",
".+%%%%%%%%#.",
".+&&&&&&&&#.",
".+*======*#.",
".+*======*#.",
".+********#.",
".$#########.",
" .......... ",
"            ",
"            ",
"            "};
