/* XPM */
static char * close_active_xpm[] = {
"23 23 23 1",
" 	c None",
".	c #5F5F5F",
"+	c #FFFFFF",
"@	c #6E6E6E",
"#	c #F1F1F1",
"$	c #1A1A1A",
"%	c #4D4D4D",
"&	c #FCFCFC",
"*	c #A1A1A1",
"=	c #2B2B2B",
"-	c #EFEFEF",
";	c #7A7A7A",
">	c #1D1D1D",
",	c #D7D7D7",
"'	c #545454",
")	c #B4B4B4",
"!	c #363636",
"~	c #F7F7F7",
"{	c #8D8D8D",
"]	c #222222",
"^	c #E2E2E2",
"/	c #303030",
"(	c #ADADAD",
".......................",
"+++++++++++++++++++++++",
"+++++++++++++++++++++++",
"+++++++++++++++++++++++",
"@#+++++++++++++++++++++",
"$%&++++++++++++++++++++",
"$$*++++++++++++++++++++",
"$$=-++++++++$$++$$+++++",
"$$$;++++++++$$++$$+++++",
"$$$>,+++++++++$$+++++++",
"$$$$'+++++++++$$+++++++",
"$$$$$)++++++$$++$$+++++",
"$$$$$!~+++++$$++$$+++++",
"$$$$$${++++++++++++++++",
"$$$$$$]^+++++++++++++++",
"$$$$$$$/(^+++++++++++++",
"$$$$$$$$$$$$$$$$$$$$$$$",
"$$$$$$$$$$$$$$$$$$$$$$$",
"$$$$$$$$$$$$$$$$$$$$$$$",
"$$$$$$$$$$$$$$$$$$$$$$$",
"$$$$$$$$$$$$$$$$$$$$$$$",
"$$$$$$$$$$$$$$$$$$$$$$$",
"$$$$$$$$$$$$$$$$$$$$$$$"};
