/* XPM */
static char * maximize_pressed_xpm[] = {
"13 23 7 1",
" 	c None",
".	c #5F5F5F",
"+	c #FFFFFF",
"@	c #1A1A1A",
"#	c #272727",
"$	c #3B3B3B",
"%	c #747474",
".............",
"+++++++++++++",
"+++++++++++++",
"+++++++++++++",
"@@@#######@@@",
"@@#$$$$$$$#@@",
"@#$%%%%%%%$#@",
"#$%+++++++%$#",
"#$%+++++++%$#",
"#$%+%%%%%+%$#",
"#$%+%$$$%+%$#",
"#$%+%%%%%+%$#",
"#$%+++++++%$#",
"@#$%%%%%%%$#@",
"@@#$$$$$$$#@@",
"@@@#######@@@",
"@@@@@@@@@@@@@",
"@@@@@@@@@@@@@",
"@@@@@@@@@@@@@",
"@@@@@@@@@@@@@",
"@@@@@@@@@@@@@",
"@@@@@@@@@@@@@",
"@@@@@@@@@@@@@"};
