/* XPM */
static char * close_prelight_xpm[] = {
"30 25 2 1",
" 	c #464D5E",
".	c #FFFFFF",
"                              ",
"                              ",
"                              ",
"                              ",
"                              ",
"         ...........          ",
"         ...........          ",
"         ...........          ",
"         ...........          ",
"         ...........          ",
"         ...........          ",
"         ...........          ",
"         ...........          ",
"         ...........          ",
"                              ",
"                              ",
"                              ",
"                              ",
"                              ",
"                              ",
"                              ",
"                              ",
"                              ",
"                              ",
"                              "};
