/* XPM */
static char * shade_prelight_xpm[] = {
"25 30 23 1",
" 	c None",
".	c #949494",
"+	c #8D8D8D",
"@	c #848484",
"#	c #7D7D7D",
"$	c #747474",
"%	c #6D6D6D",
"&	c #000000",
"*	c #353535",
"=	c #B7B7B7",
"-	c #828282",
";	c #707070",
">	c #555555",
",	c #414141",
"'	c #FFFFFF",
")	c #2E2E2E",
"!	c #1D1D1D",
"~	c #700000",
"{	c #A60000",
"]	c #BF0000",
"^	c #FF3F3F",
"/	c #EFBCBC",
"(	c #202020",
".........................",
"+++++++++++++++++++++++++",
"@@@@@@@@@@@@@@@@@@@@@@@@@",
"#########################",
"$$$$$$$$$$$$$$$$$$$$$$$$$",
"%%%%%%%%%%%%%%%%%%%%%%%%%",
"&&&&&&&&&&&&&&&&&&&&&&&&&",
"*=======================*",
"*=---------------------=*",
"*=;;;;;;;;;;;;;;;;;;;;;=*",
"*=>>>>>>>>>>&>>>>>>>>>>=*",
"*=,,,,,,,,,&'&,,,,,,,,,=*",
"*=))))))))&'&'&))))))))=*",
"*=!!!!!!!&'&!&'&!!!!!!!=*",
"*=~~~~~~&'&~~~&'&~~~~~~=*",
"*={{{{{{{&{{{{{&{{{{{{{=*",
"*=]]]]]]]]]]]]]]]]]]]]]=*",
"*=^^^^^^^^^^^^^^^^^^^^^=*",
"*///////////////////////*",
"(***********************(",
"&&&&&&&&&&&&&&&&&&&&&&&&&",
"&&&&&&&&&&&&&&&&&&&&&&&&&",
"&&&&&&&&&&&&&&&&&&&&&&&&&",
"&&&&&&&&&&&&&&&&&&&&&&&&&",
"&&&&&&&&&&&&&&&&&&&&&&&&&",
"&&&&&&&&&&&&&&&&&&&&&&&&&",
"&&&&&&&&&&&&&&&&&&&&&&&&&",
"&&&&&&&&&&&&&&&&&&&&&&&&&",
"&&&&&&&&&&&&&&&&&&&&&&&&&",
"&&&&&&&&&&&&&&&&&&&&&&&&&"};
