/* XPM */
static char * bottom_right_active_xpm[] = {
"200 100 3 1",
" 	c None",
".	c #919191",
"+	c #222222",
"                                                                                                                                                                                                 ..     ",
"                                                                                                                                                                                                 ++.    ",
"                                                                                                                                                                                                 +++.   ",
"                                                                                                                                                                                                 ++++.  ",
"                                                                                                                                                                                                 +++++. ",
"                                                                                                                                                                                                   ++++.",
"                                                                                                                                                                                                    +++.",
"                                                                                                                                                                                                    +++.",
"                                                                                                                                                                                                    +++.",
"                                                                                                                                                                                                    +++.",
"                                                                                                                                                                                                    +++.",
"                                                                                                                                                                                                    +++.",
"                                                                                                                                                                                                    +++.",
"                                                                                                                                                                                                    +++.",
"                                                                                                                                                                                                    +++.",
"                                                                                                                                                                                                    +++.",
"                                                                                                                                                                                                    +++.",
"                                                                                                                                                                                                    +++.",
"                                                                                                                                                                                                    +++.",
"                                                                                                                                                                                                    +++.",
"                                                                                                                                                                                                    +++.",
"                                                                                                                                                                                                    +++.",
"                                                                                                                                                                                                    +++.",
"                                                                                                                                                                                                    +++.",
"                                                                                                                                                                                                    +++.",
"                                                                                                                                                                                                    +++.",
"                                                                                                                                                                                                    +++.",
"                                                                                                                                                                                                    +++.",
"                                                                                                                                                                                                    +++.",
"                                                                                                                                                                                                    +++.",
"                                                                                                                                                                                                    +++.",
"                                                                                                                                                                                                    +++.",
"                                                                                                                                                                                                    +++.",
"                                                                                                                                                                                                    +++.",
"                                                                                                                                                                                                    +++.",
"                                                                                                                                                                                                    +++.",
"                                                                                                                                                                                                    +++.",
"                                                                                                                                                                                                    +++.",
"                                                                                                                                                                                                    +++.",
"                                                                                                                                                                                                    +++.",
"                                                                                                                                                                                                    +++.",
"                                                                                                                                                                                                    +++.",
"                                                                                                                                                                                                    +++.",
"                                                                                                                                                                                                    +++.",
"                                                                                                                                                                                                    +++.",
"                                                                                                                                                                                                    +++.",
"                                                                                                                                                                                                    +++.",
"                                                                                                                                                                                                    +++.",
"                                                                                                                                                                                                    +++.",
"                                                                                                                                                                                                    +++.",
"                                                                                                                                                                                                    +++.",
"                                                                                                                                                                                                    +++.",
"                                                                                                                                                                                                    +++.",
"                                                                                                                                                                                                    +++.",
"                                                                                                                                                                                                    +++.",
"                                                                                                                                                                                                    +++.",
"                                                                                                                                                                                                    +++.",
"                                                                                                                                                                                                    +++.",
"                                                                                                                                                                                                    +++.",
"                                                                                                                                                                                                    +++.",
"                                                                                                                                                                                                    +++.",
"                                                                                                                                                                                                    +++.",
"                                                                                                                                                                                                    +++.",
"                                                                                                                                                                                                    +++.",
"                                                                                                                                                                                                    +++.",
"                                                                                                                                                                                                    +++.",
"                                                                                                                                                                                                    +++.",
"                                                                                                                                                                                                    +++.",
"                                                                                                                                                                                                    +++.",
"                                                                                                                                                                                                    +++.",
"                                                                                                                                                                                                    +++.",
"                                                                                                                                                                                                    +++.",
"                                                                                                                                                                                                    +++.",
"                                                                                                                                                                                                    +++.",
"                                                                                                                                                                                                    +++.",
"                                                                                                                                                                                                    +++.",
"                                                                                                                                                                                                    +++.",
"                                                                                                                                                                                                    +++.",
"                                                                                                                                                                                                    +++.",
"                                                                                                                                                                                                    +++.",
"                                                                                                                                                                                                    +++.",
"                                                                                                                                                                                                    +++.",
"                                                                                                                                                                                                    +++.",
"                                                                                                                                                                                                    +++.",
"                                                                                                                                                                                                    +++.",
"                                                                                                                                                                                                    +++.",
"                                                                                                                                                                                                    +++.",
"                                                                                                                                                                                                    +++.",
"                                                                                                                                                                                                    +++.",
"                                                                                                                                                                                                    +++.",
"                                                                                                                                                                                                    +++.",
"                                                                                                                                                                                                    +++.",
"                                                                                                                                                                                                    +++.",
"                                                                                                                                                                                                    +++.",
"                                                                                                                                                                                                    +++.",
"                                                                                                                                                                                                   ++++.",
"++++++++++++++++++++++++++++++++++++++++++++++++++++++++++++++++++++++++++++++++++++++++++++++++++++++++++++++++++++++++++++++++++++++++++++++++++++++++++++++++++++++++++++++++++++++++++++++++++++++. ",
"+++++++++++++++++++++++++++++++++++++++++++++++++++++++++++++++++++++++++++++++++++++++++++++++++++++++++++++++++++++++++++++++++++++++++++++++++++++++++++++++++++++++++++++++++++++++++++++++++++++.  ",
"++++++++++++++++++++++++++++++++++++++++++++++++++++++++++++++++++++++++++++++++++++++++++++++++++++++++++++++++++++++++++++++++++++++++++++++++++++++++++++++++++++++++++++++++++++++++++++++++++++.   ",
"....................................................................................................................................................................................................    "};
