/* XPM */
static char * title_5_inactive_xpm[] = {
"3 17 3 1",
" 	c None",
".	c #ED8224",
"+	c #525252",
"   ",
"   ",
"...",
"+++",
"+++",
"+++",
"+++",
"+++",
"+++",
"+++",
"+++",
"+++",
"+++",
"+++",
"+++",
"+++",
"+++"};
