/* XPM */
static char * title_3_inactive_xpm[] = {
"3 17 4 1",
" 	c None",
".	c #ED8224",
"+	c #291D00",
"@	c #525252",
"   ",
"   ",
"...",
"+++",
"+++",
"+++",
"+++",
"+++",
"+++",
"+++",
"+++",
"+++",
"+++",
"+++",
"+++",
"+++",
"@@@"};
