/* XPM */
static char * close_prelight_xpm[] = {
"28 20 24 1",
" 	c None",
".	c #5AF3F7",
"+	c #292829",
"@	c #1F0000",
"#	c #250000",
"$	c #290000",
"%	c #310000",
"&	c #390000",
"*	c #420000",
"=	c #430000",
"-	c #4B0000",
";	c #4E0000",
">	c #560000",
",	c #570000",
"'	c #5F0000",
")	c #620000",
"!	c #660000",
"~	c #6A0000",
"{	c #6F0000",
"]	c #720000",
"^	c #7A0000",
"/	c #7E0000",
"(	c #840000",
"_	c #292729",
"............................",
"............................",
"++++++++++++++++++++++++++++",
"++++++++++++++++++++++++++++",
"+@@++++++++++++++++++++++@@+",
"+#++++++++++++++++++++++++$+",
"+%+++.....+.+++.+...++++++%+",
"+&+++.+++++.+++.+.++.+++++&+",
"+*+++.+++++..++.+.+++.++++=+",
"+-+++....++.+.+.+.+++.++++;+",
"+>+++.+++++.++..+.+++.++++,+",
"+'+++.+++++.+++.+.+++.++++)+",
"+!+++.+++++.+++.+.++.+++++~+",
"+{+++.....+.+++.+...++++++]+",
"+^++++++++++++++++++++++++/+",
"+((++++++++++++_+++++++++((+",
"++++++++++++++++++++++++++++",
"++++++++++++++++++++++++++++",
"++++++++++++++++++++++++++++",
"++++++++++++++++++++++++++++"};
