/* XPM */
static char * maximize_prelight_xpm[] = {
"28 20 30 1",
" 	c None",
".	c #5AF3F7",
"+	c #292829",
"@	c #1B1A1A",
"#	c #191819",
"$	c #191919",
"%	c #1A1B1A",
"&	c #1E1F1E",
"*	c #202020",
"=	c #242523",
"-	c #242525",
";	c #292A29",
">	c #2A2B2A",
",	c #2E2F2E",
"'	c #2F3130",
")	c #343533",
"!	c #353635",
"~	c #393A39",
"{	c #3A3C3A",
"]	c #3D403E",
"^	c #3F413F",
"/	c #434543",
"(	c #444744",
"_	c #484B49",
":	c #4A4D4A",
"<	c #4D504D",
"[	c #4E514D",
"}	c #4F514F",
"|	c #4F524F",
"1	c #292729",
"............................",
"............................",
"++++++++++++++++++++++++++++",
"++++++++++++++++++++++++++++",
"+@@++++++++++++++++++++++##+",
"+$++++++++++++++++++++++++%+",
"+&+++.+++.++...++.+++.++++*+",
"+=+++..+..+.+++.+.+++.++++-+",
"+;+++.+.+.+.+++.++.+.+++++>+",
"+,+++.+.+.+.+++.+++.++++++'+",
"+)+++.+++.+.....+++.++++++!+",
"+~+++.+++.+.+++.++.+.+++++{+",
"+]+++.+++.+.+++.+.+++.++++^+",
"+/+++.+++.+.+++.+.+++.++++(+",
"+_++++++++++++++++++++++++:+",
"+<[++++++++++++++++++++++}|+",
"++++++++++++1+++++++++++++++",
"++++++++++++++++++++++++++++",
"++++++++++++++++++++++++++++",
"++++++++++++++++++++++++++++"};
