/* XPM */
static char * stick_inactive_xpm[] = {
"28 20 5 1",
" 	c None",
".	c #87A68D",
"+	c #292829",
"@	c #80A187",
"#	c #292729",
"............................",
"............................",
"++++++++++++++++++++++++++++",
"++++++++++++++++++++++++++++",
"++++++++++++++++++++++++++++",
"++++++++++++++++++++++++++++",
"++++++@@@++@@@@@+@+++@++++++",
"+++++@+++@+++@+++@++@+++++++",
"+++++@+++++++@+++@+@++++++++",
"++++++@@@++++@+++@@+++++++++",
"+++++++++@+++@+++@@+++++++++",
"+++++++++@+++@+++@+@++++++++",
"+++++@+++@+++@+++@++@+++++++",
"++++++@@@++++@+++@+++@++++++",
"++++++++++++++++++++++++++++",
"++++++++++++++++++++++++++++",
"++++++++++++++++++++++++++++",
"++++++++++++++#+++++++++++++",
"++++++++++++++++++++++++++++",
"++++++++++++++++++++++++++++"};
