/* XPM */
static char * title_3_inactive_xpm[] = {
"2 20 3 1",
" 	c None",
".	c #87A68D",
"+	c #292829",
"..",
"..",
"++",
"++",
"++",
"++",
"++",
"++",
"++",
"++",
"++",
"++",
"++",
"++",
"++",
"++",
"++",
"++",
"++",
"++"};
