/* XPM */
static char * top_left_active_xpm[] = {
"1 20 3 1",
" 	c None",
".	c #5AF3F7",
"+	c #292829",
".",
".",
"+",
"+",
"+",
"+",
"+",
"+",
"+",
"+",
"+",
"+",
"+",
"+",
"+",
"+",
"+",
"+",
"+",
"+"};
