/* XPM */
static char * shade_active_xpm[] = {
"25 30 20 1",
" 	c None",
".	c #949494",
"+	c #8D8D8D",
"@	c #848484",
"#	c #7D7D7D",
"$	c #747474",
"%	c #6D6D6D",
"&	c #000000",
"*	c #A2A2A2",
"=	c #707070",
"-	c #666666",
";	c #555555",
">	c #414141",
",	c #FFFFFF",
"'	c #2E2E2E",
")	c #00354D",
"!	c #004A6D",
"~	c #00618E",
"{	c #0079B1",
"]	c #0091D5",
".........................",
"+++++++++++++++++++++++++",
"@@@@@@@@@@@@@@@@@@@@@@@@@",
"#########################",
"$$$$$$$$$$$$$$$$$$$$$$$$$",
"%%%%%%%%%%%%%%%%%%%%%%%%%",
"&&&&&&&&&&&&&&&&&&&&&&&&&",
"&***********************&",
"&*=====================*&",
"&*---------------------*&",
"&*;;;;;;;;;;&;;;;;;;;;;*&",
"&*>>>>>>>>>&,&>>>>>>>>>*&",
"&*''''''''&,&,&''''''''*&",
"&*)))))))&,&)&,&)))))))*&",
"&*!!!!!!&,&!!!&,&!!!!!!*&",
"&*~~~~~~~&~~~~~&~~~~~~~*&",
"&*{{{{{{{{{{{{{{{{{{{{{*&",
"&*]]]]]]]]]]]]]]]]]]]]]*&",
"&***********************&",
"&&&&&&&&&&&&&&&&&&&&&&&&&",
"&&&&&&&&&&&&&&&&&&&&&&&&&",
"&&&&&&&&&&&&&&&&&&&&&&&&&",
"&&&&&&&&&&&&&&&&&&&&&&&&&",
"&&&&&&&&&&&&&&&&&&&&&&&&&",
"&&&&&&&&&&&&&&&&&&&&&&&&&",
"&&&&&&&&&&&&&&&&&&&&&&&&&",
"&&&&&&&&&&&&&&&&&&&&&&&&&",
"&&&&&&&&&&&&&&&&&&&&&&&&&",
"&&&&&&&&&&&&&&&&&&&&&&&&&",
"&&&&&&&&&&&&&&&&&&&&&&&&&"};
