/* XPM */
static char * title_3_active_xpm[] = {
"1 31 24 1",
" 	c None",
".	c #000000",
"+	c #949494",
"@	c #8D8D8D",
"#	c #848484",
"$	c #7D7D7D",
"%	c #A2A2A2",
"&	c #7C7C7C",
"*	c #767676",
"=	c #707070",
"-	c #6A6A6A",
";	c #636363",
">	c #5C5C5C",
",	c #535353",
"'	c #4A4A4A",
")	c #383838",
"!	c #252525",
"~	c #001E2C",
"{	c #002B3F",
"]	c #00354E",
"^	c #004463",
"/	c #005177",
"(	c #005E8A",
"_	c #006FA2",
".",
"+",
"@",
"#",
"$",
".",
"%",
"&",
"*",
"=",
"-",
";",
">",
",",
"'",
")",
"!",
"~",
"{",
"]",
"^",
"/",
"(",
"_",
"%",
".",
".",
".",
".",
".",
"."};
