/* XPM */
static char * title_5_active_xpm[] = {
"4 21 7 1",
" 	c None",
".	c #000000",
"+	c #6ABC00",
"@	c #68B700",
"#	c #67B600",
"$	c #63AF00",
"%	c #5A9F00",
"    ",
"    ",
"    ",
"....",
"++++",
"++++",
"++++",
"@@@@",
"@@@@",
"@@@@",
"@@@@",
"@@@@",
"@@@@",
"@@@@",
"####",
"####",
"$$$$",
"$$$$",
"$$$$",
"%%%%",
"...."};
