/* XPM */
static char * bottom_active_xpm[] = {
"128 14 6 1",
" 	c None",
".	c #000000",
"+	c #010101",
"@	c #020202",
"#	c #21374E",
"$	c #1894D1",
"                                                                                                                                ",
"...........+++++@@@@@@@@+++++......++@@@@@@@@@@@@@@+++++........++++++++@@@@@@@@++++++.....++@@@@@@@@@@@@@@@@@@@@++.....++++++@@",
"................................................................................................................................",
"################################################################################################################################",
"$$$$$$$$$$$$$$$$$$$$$$$$$$$$$$$$$$$$$$$$$$$$$$$$$$$$$$$$$$$$$$$$$$$$$$$$$$$$$$$$$$$$$$$$$$$$$$$$$$$$$$$$$$$$$$$$$$$$$$$$$$$$$$$$",
"$$$$$$$$$$$$$$$$$$$$$$$$$$$$$$$$$$$$$$$$$$$$$$$$$$$$$$$$$$$$$$$$$$$$$$$$$$$$$$$$$$$$$$$$$$$$$$$$$$$$$$$$$$$$$$$$$$$$$$$$$$$$$$$$",
"################################################################################################################################",
"................................................................................................................................",
"................................................................................................................................",
"................................................................................................................................",
"                                                                                                                                ",
"                                                                                                                                ",
"                                                                                                                                ",
"                                                                                                                                "};
