/* XPM */
static char * maximize_active_xpm[] = {
"12 21 4 1",
" 	c None",
".	c #383838",
"+	c #373838",
"@	c #4F4F4F",
"            ",
"            ",
"            ",
"            ",
"            ",
"            ",
"   ......   ",
"  ........  ",
" ......+... ",
"...@@@@@@...",
"...@@@@@@...",
"...@....@...",
"...@....@...",
"...@....@...",
"...@@@@@@...",
" .......... ",
"  ........  ",
"   ......   ",
"            ",
"            ",
"            "};
