/* XPM */
static char * title_5_inactive_xpm[] = {
"8 26 19 1",
" 	c None",
".	c #3F3F3F",
"+	c #373737",
"@	c #3B3B3B",
"#	c #040404",
"$	c #101010",
"%	c #080808",
"&	c #0C0C0C",
"*	c #121212",
"=	c #171717",
"-	c #0B0B0B",
";	c #141414",
">	c #0A0A0A",
",	c #151515",
"'	c #070707",
")	c #060606",
"!	c #020202",
"~	c #2D2D2D",
"{	c #000000",
"        ",
".+++@+@+",
"#$%&#*#$",
"=%*-;>,>",
"'$)&#*!$",
"~~~~~~~~",
"~~~~~~~~",
"~~~~~~~~",
"~~~~~~~~",
"~~~~~~~~",
"~~~~~~~~",
"~~~~~~~~",
"~~~~~~~~",
"~~~~~~~~",
"~~~~~~~~",
"~~~~~~~~",
"~~~~~~~~",
"~~~~~~~~",
"~~~~~~~~",
"~~~~~~~~",
"~~~~~~~~",
"~~~~~~~~",
"%%%%%%%%",
"%%%%%%%%",
"%%%%%%%%",
"{{{{{{{{"};
