/* XPM */
static char * title_2_inactive_xpm[] = {
"16 26 46 1",
" 	c None",
".	c #373737",
"+	c #3B3B3B",
"@	c #4B4B4B",
"#	c #545454",
"$	c #858585",
"%	c #080808",
"&	c #0C0C0C",
"*	c #040404",
"=	c #0E0E0E",
"-	c #000000",
";	c #060606",
">	c #3F3F3F",
",	c #5F5F5F",
"'	c #131313",
")	c #0A0A0A",
"!	c #171717",
"~	c #101010",
"{	c #030303",
"]	c #686868",
"^	c #7B7B7B",
"/	c #707070",
"(	c #474747",
"_	c #2D2D2D",
":	c #393939",
"<	c #3D3D3D",
"[	c #404040",
"}	c #181818",
"|	c #212121",
"1	c #232323",
"2	c #272727",
"3	c #2B2B2B",
"4	c #313131",
"5	c #333333",
"6	c #444444",
"7	c #484848",
"8	c #6F6F6F",
"9	c #777777",
"0	c #525252",
"a	c #4E4E4E",
"b	c #767676",
"c	c #7F7F7F",
"d	c #1C1C1C",
"e	c #535353",
"f	c #292929",
"g	c #1B1B1B",
"                ",
".+....+@#$      ",
"%&*=-;>@,,$     ",
"')!)~{*#],,^    ",
";~;~)&-*/],#(...",
"_______>,],#(>++",
"_________#,#@@((",
"________________",
"________________",
"________________",
"________________",
"__________:<<<[[",
"_________:#}|112",
"________<#1345::",
"________#14.<677",
"_______#14.[6899",
"______@14[[0899^",
"_____@%4<.ab^9^^",
"____@%%4<[cb8^^^",
"___@%%d4<[[00e,,",
"__@%%fd44<[[aa00",
"_@%%%%&4444.[[[[",
"%%%%%%%%%ggg2333",
"%%%%%%%%%%%%gggg",
"%%%%%%%%%%%%%%%%",
"----------------"};
