/* XPM */
static char * top_right_inactive_xpm[] = {
"36 26 45 1",
" 	c None",
".	c #474747",
"+	c #404040",
"@	c #1A1A1A",
"#	c #1F1F1F",
"$	c #2B2B2B",
"%	c #333333",
"&	c #272727",
"*	c #171717",
"=	c #0D0D0D",
"-	c #050505",
";	c #080808",
">	c #3F3F3F",
",	c #373737",
"'	c #3B3B3B",
")	c #545454",
"!	c #4B4B4B",
"~	c #4E4E4E",
"{	c #767676",
"]	c #6F6F6F",
"^	c #7B7B7B",
"/	c #777777",
"(	c #7F7F7F",
"_	c #121212",
":	c #0A0A0A",
"<	c #040404",
"[	c #101010",
"}	c #060606",
"|	c #0C0C0C",
"1	c #707070",
"2	c #5F5F5F",
"3	c #1B1B1B",
"4	c #090909",
"5	c #181818",
"6	c #1D1D1D",
"7	c #5A5A5A",
"8	c #2D2D2D",
"9	c #070707",
"0	c #0E0E0E",
"a	c #393939",
"b	c #000000",
"c	c #232323",
"d	c #636363",
"e	c #3D3D3D",
"f	c #525252",
"      .++@#$$$%%%%%%$&#*=-;;        ",
">,'.)!!~*&{]]]^]^/^]]{{(_:!;;       ",
"<[}|1)2_#{]^////////]]{#_)3;:;      ",
"*45122:_{{]^^^^^^^^^^{&6783;;;;     ",
"902aab-0*#&$%%%,,,,%$c6d888;;;;;    ",
"888888e++~~77fdfdfd777~88888;;;;;   ",
"8888888e+++~~~~~~~~~~+8888888;;;;b  ",
"888888888888888888888888888888;;;;b ",
"8888888888888888888888888888888;;;;b",
"8888888888888888888888888888888;;;;b",
"8888888888888888888888888888888;;;;b",
"8888888888888888888888888888888;;;;b",
"8888888888888888888888888888888;;;;b",
"8888888888888888888888888888888;;;;b",
"8888888888888888888888888888888;;;;b",
"8888888888888888888888888888888;;;;b",
"8888888888888888888888888888888;;;;b",
"8888888888888888888888888888888;;;;b",
"8888888888888888888888888888888;;;;b",
"8888888888888888888888888888888;;;;b",
"8888888888888888888888888888888;;;;b",
"8888888888888888888888888888888;;;;b",
";;;;;;;;;;;;;;;;;;;;;;;;;888888;;;;b",
";;;;;;;;;;;;;;;;;;;;;;;;;;88888;;;;b",
";;;;;;;;;;;;;;;;;;;;;;;;;;;8888;;;;b",
"bbbbbbbbbbbbbbbbbbbbbbbbbbbb888;;;;b"};
