/* XPM */
static char * title_4_inactive_xpm[] = {
"8 21 22 1",
" 	c None",
".	c #3D3D3D",
"+	c #1E1E1E",
"@	c #151515",
"#	c #101010",
"$	c #0F0F0F",
"%	c #111111",
"&	c #232323",
"*	c #212121",
"=	c #121212",
"-	c #131313",
";	c #1F1F1F",
">	c #141414",
",	c #161616",
"'	c #171717",
")	c #1D1D1D",
"!	c #181818",
"~	c #1C1C1C",
"{	c #191919",
"]	c #0C0C0C",
"^	c #1B1B1B",
"/	c #1A1A1A",
"        ",
".....   ",
"++++@.  ",
"####$...",
"%%%%$.&&",
"%%%%$.**",
"====$.**",
"----$.;;",
">>>>$.;;",
">>>>$.;;",
"@@@@$.++",
",,,,$.++",
"''''$.))",
"''''$.))",
"!!!!$.~~",
"{{{{$.~~",
"]]]]%.^^",
".....^^^",
"////////",
"@@@@@@@@",
"........"};
