/* XPM */
static char * top_left_active_xpm[] = {
"21 21 17 1",
" 	c None",
".	c #000000",
"+	c #332D06",
"@	c #2A2505",
"#	c #110F02",
"$	c #292304",
"%	c #3C3407",
"&	c #231F04",
"*	c #393106",
"=	c #252004",
"-	c #352E06",
";	c #211D04",
">	c #201B03",
",	c #322B05",
"'	c #1C1803",
")	c #302905",
"!	c #2C2605",
"   .............     ",
"  .+++++++++++++.    ",
" .+@@@@@@@@@@@@@#.   ",
".+$$$$$$$$$$$$$$#....",
".+$$$$$$$$$$$$$#.$%%%",
".+$$$$$$$$$$$$#.&****",
".+===========#.&***.*",
".+&&&&&&&&&&#.&-----%",
".+&&&&&&&&&#.&---.-.-",
".+&&&&&&&&#.&-----%-%",
".+;;;;;;;#.&+++.+.+.+",
".+>>>>>>#.&+++++%+%+%",
".+>>>>>#.&,,,.,.,.,.,",
".+''''#.&,,,,,%,%,%,%",
".+'''#.&))).).).).).)",
".+''#.&)))))%)%)%)%)%",
".+##.&!!!.!.!.!.!.!.!",
".+#.&!!!!!%!%!%!%!%!%",
".+#.@@@@@@@@@@@@@@@@@",
".+#.&&&&&&&&&&&&&&&&&",
".+#.................."};
