/* XPM */
static char * shade_inactive_xpm[] = {
"28 20 7 1",
" 	c None",
".	c #87A68D",
"+	c #081418",
"@	c #80A187",
"#	c #081318",
"$	c #081417",
"%	c #071418",
"............................",
"............................",
"++++++++++++++++++++++++++++",
"++++++++++++++++++++++++++++",
"++++++++++++++++++++++++++++",
"++++++++++++++++++++++++++++",
"++++++@@@++@+++@+@@@++++++++",
"+++++@+++@+@+++@+@++@+++++++",
"+++++@+++++@+++@+@+++@++++++",
"++++++@@@+#@@@@@+@+++@++++++",
"+++++++++@+@$++@+@+++@++++++",
"+++++++++@+@+++@+@+++@++++++",
"+++++@+++@+@+++@+@++@+++++++",
"++++++@@@++@+++@+@@@++++++++",
"++++++++++++++++++++++++++++",
"++++++++++++++++++++++++++++",
"+%++++++++++++++++++++++++++",
"++++++++++++++++++++++++++++",
"++++++++++++++++++++++++++++",
"+++++++++++++++%%+++++++++++"};
