/* XPM */
static char * stick_prelight_xpm[] = {
"28 20 32 1",
" 	c None",
".	c #5AF3F7",
"+	c #081418",
"@	c #071418",
"#	c #101414",
"$	c #121415",
"%	c #191919",
"&	c #081318",
"*	c #1A1B1A",
"=	c #1E1F1E",
"-	c #202020",
";	c #242523",
">	c #242525",
",	c #292A29",
"'	c #2A2B2A",
")	c #2E2F2E",
"!	c #2F3130",
"~	c #343533",
"{	c #353635",
"]	c #393A39",
"^	c #3A3C3A",
"/	c #3D403E",
"(	c #3F413F",
"_	c #434543",
":	c #444744",
"<	c #484B49",
"[	c #081417",
"}	c #4A4D4A",
"|	c #4D504D",
"1	c #4E514D",
"2	c #4F514F",
"3	c #4F524F",
"............................",
"............................",
"++@+++++++++++++++++++++++++",
"++++++++++++++++++++++++++++",
"+##++++++++++++++++++++++$$+",
"+%++++++++++++++&+++++++++*+",
"+=++++...++.....+.+++.++++-+",
"+;+++.+++.+++.+++.++.+++++>+",
"+,+++.+++++++.+++.+.++++++'+",
"+)++++...++++.+++..+++++++!+",
"+~+++++++.+++.+++..+++++++{+",
"+]+++++++.+++.+++.+.+&++++^+",
"+/+++.+++.+++.+++.++.+++++(+",
"+_++++...++++.+++.+++.++++:+",
"+<++++++++[+++++++++++++++}+",
"+|1++++++++++++++++++++++23+",
"++++++++++++++++++++++++++++",
"++++++++++++++++++++++++++++",
"+++++++++++++++++@++++++++++",
"++++++++++++++++++++++++++++"};
