/* XPM */
static char * title_2_active_xpm[] = {
"2 20 3 1",
" 	c None",
".	c #5AF3F7",
"+	c #081418",
"..",
"..",
"++",
"++",
"++",
"++",
"++",
"++",
"++",
"++",
"++",
"++",
"++",
"++",
"++",
"++",
"++",
"++",
"++",
"++"};
