/* XPM */
static char * maximize_active_xpm[] = {
"18 24 28 1",
" 	c None",
".	c #000000",
"+	c #3B3B3B",
"@	c #292929",
"#	c #454545",
"$	c #393939",
"%	c #424242",
"&	c #383838",
"*	c #414141",
"=	c #373737",
"-	c #2A2A2A",
";	c #404040",
">	c #363636",
",	c #3F3F3F",
"'	c #343434",
")	c #3D3D3D",
"!	c #333333",
"~	c #323232",
"{	c #3A3A3A",
"]	c #FFFFFF",
"^	c #313131",
"/	c #2B2B2B",
"(	c #303030",
"_	c #2C2C2C",
":	c #2D2D2D",
"<	c #353535",
"[	c #2E2E2E",
"}	c #3E3E3E",
"..................",
"++++++++++++++++@#",
"$$$$$$$$$$$$$$$$@%",
"&&&&&&&&&&&&&&&&@*",
"================-;",
">>>>>>>>>>>>>>>>@,",
"''''''''''''''''@)",
"!!!!!!!!!!!!!!!!-+",
"~~~~~~~~~~~~~~~~-{",
"~~~~~~~]~~~~~~~~-{",
"^^^^^^]]]^^^^^^^-$",
"^^^^^]]]]]^^^^^^/$",
"^^^^]]].]]]^^^^^/$",
"((((]].(.]](((((/&",
"((((..(((..(((((/&",
"((((((((((((((((_&",
"((((((((((((((((_&",
"^^^^^^^^^^^^^^^^:$",
"!!!!!!!!!!!!!!!!:+",
"!!!!!!!!!!!!!!!!:+",
"'''''''''''''''':)",
"<<<<<<<<<<<<<<<<[}",
"<<<<<<<<<<<<<<<<[}",
".................."};
