/* XPM */
static char * title_3_inactive_xpm[] = {
"1 24 12 1",
" 	c None",
".	c #000000",
"+	c #848484",
"@	c #4C4C4C",
"#	c #474747",
"$	c #434343",
"%	c #404040",
"&	c #3E3E3E",
"*	c #3B3B3B",
"=	c #393939",
"-	c #353535",
";	c #303030",
".",
"+",
"@",
"@",
"@",
"@",
"@",
"#",
"#",
"$",
"$",
"%",
"%",
"&",
"&",
"*",
"*",
"=",
"=",
"-",
"-",
";",
";",
"."};
