/* XPM */
static char * title_5_inactive_xpm[] = {
"24 24 13 1",
" 	c None",
".	c #000000",
"+	c #3B3B3B",
"@	c #393939",
"#	c #383838",
"$	c #373737",
"%	c #363636",
"&	c #343434",
"*	c #333333",
"=	c #323232",
"-	c #313131",
";	c #303030",
">	c #353535",
"........................",
"++++++++++++++++++++++++",
"@@@@@@@@@@@@@@@@@@@@@@@@",
"########################",
"$$$$$$$$$$$$$$$$$$$$$$$$",
"%%%%%%%%%%%%%%%%%%%%%%%%",
"&&&&&&&&&&&&&&&&&&&&&&&&",
"************************",
"========================",
"========================",
"------------------------",
"------------------------",
"------------------------",
";;;;;;;;;;;;;;;;;;;;;;;;",
";;;;;;;;;;;;;;;;;;;;;;;;",
";;;;;;;;;;;;;;;;;;;;;;;;",
";;;;;;;;;;;;;;;;;;;;;;;;",
"------------------------",
"************************",
"************************",
"&&&&&&&&&&&&&&&&&&&&&&&&",
">>>>>>>>>>>>>>>>>>>>>>>>",
">>>>>>>>>>>>>>>>>>>>>>>>",
"........................"};
