/* XPM */
static char * title_4_inactive_xpm[] = {
"128 24 108 2",
"  	c None",
". 	c #000000",
"+ 	c #838383",
"@ 	c #828282",
"# 	c #818181",
"$ 	c #808080",
"% 	c #7F7F7F",
"& 	c #7E7E7E",
"* 	c #7D7D7D",
"= 	c #7C7C7C",
"- 	c #7B7B7B",
"; 	c #7A7A7A",
"> 	c #797979",
", 	c #787878",
"' 	c #777777",
") 	c #767676",
"! 	c #757575",
"~ 	c #747474",
"{ 	c #737373",
"] 	c #727272",
"^ 	c #717171",
"/ 	c #707070",
"( 	c #6F6F6F",
"_ 	c #6E6E6E",
": 	c #6D6D6D",
"< 	c #6C6C6C",
"[ 	c #6B6B6B",
"} 	c #6A6A6A",
"| 	c #696969",
"1 	c #686868",
"2 	c #676767",
"3 	c #666666",
"4 	c #656565",
"5 	c #646464",
"6 	c #636363",
"7 	c #626262",
"8 	c #616161",
"9 	c #606060",
"0 	c #5F5F5F",
"a 	c #5E5E5E",
"b 	c #5D5D5D",
"c 	c #5C5C5C",
"d 	c #5B5B5B",
"e 	c #5A5A5A",
"f 	c #595959",
"g 	c #585858",
"h 	c #575757",
"i 	c #565656",
"j 	c #555555",
"k 	c #545454",
"l 	c #535353",
"m 	c #525252",
"n 	c #515151",
"o 	c #505050",
"p 	c #4F4F4F",
"q 	c #4E4E4E",
"r 	c #4D4D4D",
"s 	c #4C4C4C",
"t 	c #4B4B4B",
"u 	c #4A4A4A",
"v 	c #494949",
"w 	c #484848",
"x 	c #474747",
"y 	c #464646",
"z 	c #454545",
"A 	c #444444",
"B 	c #434343",
"C 	c #424242",
"D 	c #414141",
"E 	c #404040",
"F 	c #3F3F3F",
"G 	c #3E3E3E",
"H 	c #3D3D3D",
"I 	c #3C3C3C",
"J 	c #3B3B3B",
"K 	c #3A3A3A",
"L 	c #393939",
"M 	c #383838",
"N 	c #373737",
"O 	c #363636",
"P 	c #353535",
"Q 	c #343434",
"R 	c #333333",
"S 	c #323232",
"T 	c #313131",
"U 	c #303030",
"V 	c #2F2F2F",
"W 	c #2E2E2E",
"X 	c #2D2D2D",
"Y 	c #2C2C2C",
"Z 	c #2B2B2B",
"` 	c #2A2A2A",
" .	c #292929",
"..	c #282828",
"+.	c #272727",
"@.	c #262626",
"#.	c #252525",
"$.	c #242424",
"%.	c #232323",
"&.	c #222222",
"*.	c #212121",
"=.	c #202020",
"-.	c #1F1F1F",
";.	c #1E1E1E",
">.	c #1D1D1D",
",.	c #1C1C1C",
"'.	c #1B1B1B",
").	c #1A1A1A",
". . . . . . . . . . . . . . . . . . . . . . . . . . . . . . . . . . . . . . . . . . . . . . . . . . . . . . . . . . . . . . . . . . . . . . . . . . . . . . . . . . . . . . . . . . . . . . . . . . . . . . . . . . . . . . . . . . . . . . . . . . . . . . . . ",
"+ @ # # $ % & * = - ; ; > , ' ' ) ! ~ { ] ^ ^ / ( _ : < [ [ } | 1 1 2 3 4 5 6 7 8 8 9 0 a b c d d e f g g h i j k l m m n o p q q r s t u v w w x y z A B C D D E F F G H I J K L L M N O P Q R S S T U V V W X Y Z `  .....+.@.#.$.$.%.&.*.=.-.-.;.>.,.'.).'.. ",
"t u u u v v v w w w x x y y y z z z A A B B C C C D D D E E E F F G G H H H I I I J J J K K L L L M M N N N O O P P P Q Q Q R R R S T T T U U U V V V W W X X Y Y Y Z Z Z Z `  . . .......+.+.+.@.#.#.#.$.$.$.%.%.%.&.&.*.*.=.=.=.-.-.-.-.;.;.>.>.,.,.,.'.'.. L ",
"t u u u v v v w w w x x y y y z z z A A B B C C C D D D E E E F F G G H H H I I I J J J K K L L L M M N N N O O P P P Q Q Q R R R S T T T U U U V V V W W X X Y Y Y Z Z Z Z `  . . .......+.+.+.@.#.#.#.$.$.$.%.%.%.&.&.*.*.=.=.=.-.-.-.-.;.;.>.>.,.,.,.'.'.. M ",
"t u u u v v v w w w x x y y y z z z A A B B C C C D D D E E E F F G G H H H I I I J J J K K L L L M M N N N O O P P P Q Q Q R R R S T T T U U U V V V W W X X Y Y Y Z Z Z Z `  . . .......+.+.+.@.#.#.#.$.$.$.%.%.%.&.&.*.*.=.=.=.-.-.-.-.;.;.>.>.,.,.,.'.'.. N ",
"t u u u v v v w w w x x y y y z z z A A B B C C C D D D E E E F F G G H H H I I I J J J K K L L L M M N N N O O P P P Q Q Q R R R S T T T U U U V V V W W X X Y Y Y Z Z Z Z `  . . .......+.+.+.@.#.#.#.$.$.$.%.%.%.&.&.*.*.=.=.=.-.-.-.-.;.;.>.>.,.,.,.'.'.. O ",
"t u u u v v v w w w x x y y y z z z A A B B C C C D D D E E E F F G G H H H I I I J J J K K L L L M M N N N O O P P P Q Q Q R R R S T T T U U U V V V W W X X Y Y Y Z Z Z Z `  . . .......+.+.+.@.#.#.#.$.$.$.%.%.%.&.&.*.*.=.=.=.-.-.-.-.;.;.>.>.,.,.,.'.. Q Q ",
"y z z z A A A A A B B B C C C D D D E E E E F F F G G G G H H H I I J J J J K K K L L L M M M N N N N O O O P P Q Q Q Q R R R S S S T T T U U U U U V V V W W W W X X X Y Y Y Z Z Z ` ` `  . . . .....+.+.+.+.@.@.@.#.#.$.$.$.$.%.%.%.&.&.&.&.*.*.=.=.=.=.. R R ",
"y z z z A A A A A B B B C C C D D D E E E E F F F G G G G H H H I I J J J J K K K L L L M M M N N N N O O O P P Q Q Q Q R R R S S S T T T U U U U U V V V W W W W X X X Y Y Y Z Z Z ` ` `  . . . .....+.+.+.+.@.@.@.#.#.$.$.$.$.%.%.%.&.&.&.&.*.*.=.=.=.=.. S S ",
"B C C C D D D E E E E E F F F F G G G G H H I I I I J J J J J K K L L L L M M M M N N N N N O O O O P P P P Q Q R R R R S S S S S T U U U U U V V V V W W X X X X Y Y Y Y Y Z Z Z Z ` ` ` `  . . .......+.+.+.+.+.@.@.@.#.#.$.$.$.$.$.%.%.%.%.&.&.&.&.&.*.. S S ",
"B C C C D D D E E E E E F F F F G G G G H H I I I I J J J J J K K L L L L M M M M N N N N N O O O O P P P P Q Q R R R R S S S S S T U U U U U V V V V W W X X X X Y Y Y Y Y Z Z Z Z ` ` ` `  . . .......+.+.+.+.+.@.@.@.#.#.$.$.$.$.$.%.%.%.%.&.&.&.&.&.. T T T ",
"E F F F F F G G G G H H H H H H I I I I J J J K K K K K L L L L M M M M M M N N N N N O O O P P P P Q Q Q Q R R R R S S S S T T T T T T U U U U V V V V W W W X X X X X Y Y Y Y Y Y Z Z Z Z ` ` `  . . . . .........+.+.+.@.@.@.@.#.#.#.#.#.#.$.$.$.$.$.. T T T ",
"E F F F F F G G G G H H H H H H I I I I J J J K K K K K L L L L M M M M M M N N N N N O O O P P P P Q Q Q Q R R R R S S S S T T T T T T U U U U V V V V W W W X X X X X Y Y Y Y Y Y Z Z Z Z ` ` `  . . . . .........+.+.+.@.@.@.@.#.#.#.#.#.#.$.$.$.$.$.. T T T ",
"G H H H H H H I I I I I J J J J K K K K K K L L L L L L M M M M M N N N N O O O O O O P P P P P P Q Q Q Q Q R R R R S S S S S T T T T T T U U U U U U V V V W W W W W W X X X X X X Y Y Y Y Y Y Z Z Z ` ` ` ` ` `  . . . . ...................@.@.@.@.@.. U U U ",
"G H H H H H H I I I I I J J J J K K K K K K L L L L L L M M M M M N N N N O O O O O O P P P P P P Q Q Q Q Q R R R R S S S S S T T T T T T U U U U U U V V V W W W W W W X X X X X X Y Y Y Y Y Y Z Z Z ` ` ` ` ` `  . . . . ...................@.@.@.@.. U U U U ",
"J J J J K K K K K K K K L L L M M M M M M M N N N N N N N O O O O O P P P P P P P Q Q Q Q Q Q Q Q R R R R R R R S S S S S S S T T T U U U U U U U U V V V V V V V W W W W W W X X X X X X Y Y Y Y Y Y Y Z Z Z Z Z Z Z Z ` ` ` ` ` ` `  . . . .......... U U U U ",
"J J J J K K K K K K K K L L L M M M M M M M N N N N N N N O O O O O P P P P P P P Q Q Q Q Q Q Q Q R R R R R R R S S S S S S S T T T U U U U U U U U V V V V V V V W W W W W W X X X X X X Y Y Y Y Y Y Y Z Z Z Z Z Z Z Z ` ` ` ` ` ` `  . . . .......... U U U U ",
"L M M M M M M M M M N N N N N O O O O O O O O O O P P P P P P P P P P Q Q Q Q Q Q Q Q Q R R R R R R R R R R S S S S S T T T T T T T T T T U U U U U U U U U U V V V V V V V V W W W W W W X X X X X X X X X X Y Y Y Y Y Y Y Y Y Y Z Z Z Z Z Z ` ` ` . T T T T T ",
"L M M M M M M M M M N N N N N O O O O O O O O O O P P P P P P P P P P Q Q Q Q Q Q Q Q Q R R R R R R R R R R S S S S S T T T T T T T T T T U U U U U U U U U U V V V V V V V V W W W W W W X X X X X X X X X X Y Y Y Y Y Y Y Y Y Y Z Z Z Z Z Z ` ` ` . R R R R R ",
"P P P P P P Q Q Q Q Q Q Q Q Q Q Q Q Q Q R R R R R R R R S S S S S S S S S S S S S S S T T T T T T T T T T T T T T T U U U U U U U U U U U U U U V V V V V V V W W W W W W W W W W W W W W W X X X X X X X X X X X X X X X Y Y Y Y Y Y Y Y Y Y Y Y Y . R R R R R ",
"P P P P P P Q Q Q Q Q Q Q Q Q Q Q Q Q Q R R R R R R R R S S S S S S S S S S S S S S S T T T T T T T T T T T T T T T U U U U U U U U U U U U U U V V V V V V V W W W W W W W W W W W W W W W X X X X X X X X X X X X X X X Y Y Y Y Y Y Y Y Y Y Y Y Y . Q Q Q Q Q ",
"U U U U U U U U U U U U U U U U U U U U U U U U U U U U U U U U U U U U U U U U U U U U U U U U U U U U U U U U U U U U U U U U U U U U U U U U U U U U U U U U U U U U U U U U U U U U U U U U U U U U U U U U U U U U U U U U U U U U U U U U U . P P P P P P ",
"U U U U U U U U U U U U U U U U U U U U U U U U U U U U U U U U U U U U U U U U U U U U U U U U U U U U U U U U U U U U U U U U U U U U U U U U U U U U U U U U U U U U U U U U U U U U U U U U U U U U U U U U U U U U U U U U U U U U U U U U U . P P P P P P ",
". . . . . . . . . . . . . . . . . . . . . . . . . . . . . . . . . . . . . . . . . . . . . . . . . . . . . . . . . . . . . . . . . . . . . . . . . . . . . . . . . . . . . . . . . . . . . . . . . . . . . . . . . . . . . . . . . . . . . . . . . . . . . . . . "};
