/* XPM */
static char * title_3_active_xpm[] = {
"1 24 12 1",
" 	c None",
".	c #000000",
"+	c #788690",
"@	c #285070",
"#	c #2A4A64",
"$	c #2A465D",
"%	c #2B4356",
"&	c #2C4050",
"*	c #2D3D4A",
"=	c #2E3A44",
"-	c #2E363C",
";	c #303030",
".",
"+",
"@",
"@",
"@",
"@",
"@",
"#",
"#",
"$",
"$",
"%",
"%",
"&",
"&",
"*",
"*",
"=",
"=",
"-",
"-",
";",
";",
"."};
