/* XPM */
static char * title_2_inactive_xpm[] = {
"128 24 108 2",
"  	c None",
". 	c #000000",
"+ 	c #1B1B1B",
"@ 	c #1A1A1A",
"# 	c #1C1C1C",
"$ 	c #1D1D1D",
"% 	c #1E1E1E",
"& 	c #1F1F1F",
"* 	c #202020",
"= 	c #212121",
"- 	c #222222",
"; 	c #232323",
"> 	c #242424",
", 	c #252525",
"' 	c #262626",
") 	c #272727",
"! 	c #282828",
"~ 	c #292929",
"{ 	c #2A2A2A",
"] 	c #2B2B2B",
"^ 	c #2C2C2C",
"/ 	c #2D2D2D",
"( 	c #2E2E2E",
"_ 	c #2F2F2F",
": 	c #303030",
"< 	c #313131",
"[ 	c #323232",
"} 	c #333333",
"| 	c #343434",
"1 	c #353535",
"2 	c #363636",
"3 	c #373737",
"4 	c #383838",
"5 	c #393939",
"6 	c #3A3A3A",
"7 	c #3B3B3B",
"8 	c #3C3C3C",
"9 	c #3D3D3D",
"0 	c #3E3E3E",
"a 	c #3F3F3F",
"b 	c #404040",
"c 	c #414141",
"d 	c #424242",
"e 	c #434343",
"f 	c #444444",
"g 	c #454545",
"h 	c #464646",
"i 	c #474747",
"j 	c #484848",
"k 	c #494949",
"l 	c #4A4A4A",
"m 	c #4B4B4B",
"n 	c #4C4C4C",
"o 	c #4D4D4D",
"p 	c #4E4E4E",
"q 	c #4F4F4F",
"r 	c #505050",
"s 	c #515151",
"t 	c #525252",
"u 	c #535353",
"v 	c #545454",
"w 	c #555555",
"x 	c #565656",
"y 	c #575757",
"z 	c #585858",
"A 	c #595959",
"B 	c #5A5A5A",
"C 	c #5B5B5B",
"D 	c #5C5C5C",
"E 	c #5D5D5D",
"F 	c #5E5E5E",
"G 	c #5F5F5F",
"H 	c #606060",
"I 	c #616161",
"J 	c #626262",
"K 	c #636363",
"L 	c #646464",
"M 	c #656565",
"N 	c #666666",
"O 	c #676767",
"P 	c #686868",
"Q 	c #696969",
"R 	c #6A6A6A",
"S 	c #6B6B6B",
"T 	c #6C6C6C",
"U 	c #6D6D6D",
"V 	c #6E6E6E",
"W 	c #6F6F6F",
"X 	c #707070",
"Y 	c #717171",
"Z 	c #727272",
"` 	c #737373",
" .	c #747474",
"..	c #757575",
"+.	c #767676",
"@.	c #777777",
"#.	c #787878",
"$.	c #797979",
"%.	c #7A7A7A",
"&.	c #7B7B7B",
"*.	c #7C7C7C",
"=.	c #7D7D7D",
"-.	c #7E7E7E",
";.	c #7F7F7F",
">.	c #808080",
",.	c #818181",
"'.	c #828282",
").	c #848484",
". . . . . . . . . . . . . . . . . . . . . . . . . . . . . . . . . . . . . . . . . . . . . . . . . . . . . . . . . . . . . . . . . . . . . . . . . . . . . . . . . . . . . . . . . . . . . . . . . . . . . . . . . . . . . . . . . . . . . . . . . . . . . . . . ",
". + @ + # $ % & & * = - - ; > , ' ) ! ! ~ { ] ^ / ( ( _ : < < [ } | 1 2 3 4 4 5 6 7 8 8 9 0 a b c c d e f g h i i j k l m m n o p q r s s t u v w x y y z A B B C D E F G H I I J K L M N O O P Q R R S T U V W X X Y Z `  . ...+.@.#.$.%.%.&.*.=.-.;.>.>.,.'.).",
"5 . + + # # # $ $ $ % % & & & * * * = = - - ; ; ; > > > , , , ' ) ) ) ! ! ! ~ ~ ~ { { ] ] ] ^ ^ ^ / / / ( _ _ _ : : : < < < [ } } } | | | 1 1 1 2 2 3 3 3 4 4 4 5 5 5 6 6 7 7 8 8 8 9 9 9 0 0 a a b b b c c c d d d e e f f f g g g h h h i j j j k k k l l l n ",
"4 . + + # # # $ $ $ % % & & & * * * = = - - ; ; ; > > > , , , ' ) ) ) ! ! ! ~ ~ ~ { { ] ] ] ^ ^ ^ / / / ( _ _ _ : : : < < < [ } } } | | | 1 1 1 2 2 3 3 3 4 4 4 5 5 5 6 6 7 7 8 8 8 9 9 9 0 0 a a b b b c c c d d d e e f f f g g g h h h i j j j k k k l l l n ",
"3 . + + # # # $ $ $ % % & & & * * * = = - - ; ; ; > > > , , , ' ) ) ) ! ! ! ~ ~ ~ { { ] ] ] ^ ^ ^ / / / ( _ _ _ : : : < < < [ } } } | | | 1 1 1 2 2 3 3 3 4 4 4 5 5 5 6 6 7 7 8 8 8 9 9 9 0 0 a a b b b c c c d d d e e f f f g g g h h h i j j j k k k l l l n ",
"2 . + + # # # $ $ $ % % & & & * * * = = - - ; ; ; > > > , , , ' ) ) ) ! ! ! ~ ~ ~ { { ] ] ] ^ ^ ^ / / / ( _ _ _ : : : < < < [ } } } | | | 1 1 1 2 2 3 3 3 4 4 4 5 5 5 6 6 7 7 8 8 8 9 9 9 0 0 a a b b b c c c d d d e e f f f g g g h h h i j j j k k k l l l n ",
"| | . + # # # $ $ $ % % & & & * * * = = - - ; ; ; > > > , , , ' ) ) ) ! ! ! ~ ~ ~ { { ] ] ] ^ ^ ^ / / / ( _ _ _ : : : < < < [ } } } | | | 1 1 1 2 2 3 3 3 4 4 4 5 5 5 6 6 7 7 8 8 8 9 9 9 0 0 a a b b b c c c d d d e e f f f g g g h h h i j j j k k k l l l n ",
"} } . * * * * = = = - - - ; ; ; > > > > , , ' ' ' ) ) ) ) ! ! ~ ~ ~ ~ { { { ] ] ] ] ^ ^ / / / ( ( ( ( ( _ _ _ : : : : < < < [ [ [ } } } | | | | 1 1 2 2 2 3 3 3 3 4 4 4 5 5 5 6 6 6 7 7 7 7 8 8 9 9 9 0 0 0 0 a a a b b b b b c c c d d d e e f f f f f g g g i ",
"[ [ . * * * * = = = - - - ; ; ; > > > > , , ' ' ' ) ) ) ) ! ! ~ ~ ~ ~ { { { ] ] ] ] ^ ^ / / / ( ( ( ( ( _ _ _ : : : : < < < [ [ [ } } } | | | | 1 1 2 2 2 3 3 3 3 4 4 4 5 5 5 6 6 6 7 7 7 7 8 8 9 9 9 0 0 0 0 a a a b b b b b c c c d d d e e f f f f f g g g i ",
"[ [ . = - - - - - ; ; ; ; > > > > > , , ' ' ' ' ) ) ) ) ! ! ! ~ ~ ~ { { { { ] ] ] ] ] ^ ^ ^ ^ / / / / / ( _ _ _ _ _ : : : : < [ [ [ [ [ } } } } | | 1 1 1 1 2 2 2 2 2 3 3 3 3 4 4 4 4 5 5 5 5 6 6 7 7 7 7 7 8 8 8 8 9 9 0 0 0 0 a a a a a b b b b c c c d d d e ",
"< < < . - - - - - ; ; ; ; > > > > > , , ' ' ' ' ) ) ) ) ! ! ! ~ ~ ~ { { { { ] ] ] ] ] ^ ^ ^ ^ / / / / / ( _ _ _ _ _ : : : : < [ [ [ [ [ } } } } | | 1 1 1 1 2 2 2 2 2 3 3 3 3 4 4 4 4 5 5 5 5 6 6 7 7 7 7 7 8 8 8 8 9 9 0 0 0 0 a a a a a b b b b c c c d d d e ",
"< < < . > > > > > , , , , , , ' ' ' ' ) ) ) ! ! ! ! ! ~ ~ ~ ~ { { { ] ] ] ] ^ ^ ^ ^ ^ ^ / / / / / ( ( ( _ _ _ _ : : : : < < < < < < [ [ [ [ [ } } } | | | | 1 1 1 1 1 2 2 2 3 3 3 3 4 4 4 4 4 4 5 5 5 5 6 6 6 6 6 7 7 7 8 8 8 8 9 9 9 9 9 9 0 0 0 0 a a a a a b ",
"< < < . > > > > > , , , , , , ' ' ' ' ) ) ) ! ! ! ! ! ~ ~ ~ ~ { { { ] ] ] ] ^ ^ ^ ^ ^ ^ / / / / / ( ( ( _ _ _ _ : : : : < < < < < < [ [ [ [ [ } } } | | | | 1 1 1 1 1 2 2 2 3 3 3 3 4 4 4 4 4 4 5 5 5 5 6 6 6 6 6 7 7 7 8 8 8 8 9 9 9 9 9 9 0 0 0 0 a a a a a b ",
": : : . ' ' ' ' ' ) ) ) ! ! ! ! ! ! ~ ~ ~ ~ ~ ~ { { { { { ] ] ] ^ ^ ^ ^ ^ ^ / / / / / / ( ( ( ( ( ( _ _ _ : : : : : : < < < < < < [ [ [ [ [ [ } } } | | | | | | 1 1 1 1 1 1 2 2 2 2 2 3 3 3 3 4 4 4 4 4 5 5 5 5 5 5 6 6 6 6 6 6 7 7 7 7 7 8 8 8 8 9 9 9 9 9 9 0 ",
": : : : . ' ' ' ' ) ) ) ! ! ! ! ! ! ~ ~ ~ ~ ~ ~ { { { { { ] ] ] ^ ^ ^ ^ ^ ^ / / / / / / ( ( ( ( ( ( _ _ _ : : : : : : < < < < < < [ [ [ [ [ [ } } } | | | | | | 1 1 1 1 1 1 2 2 2 2 2 3 3 3 3 4 4 4 4 4 5 5 5 5 5 5 6 6 6 6 6 6 7 7 7 7 7 8 8 8 8 9 9 9 9 9 9 0 ",
": : : : . ! ! ! ! ! ~ ~ ~ { { { { { { { { ] ] ] ] ] ] ] ^ ^ ^ ^ ^ ^ ^ / / / / / / / ( ( ( ( ( _ _ _ _ _ _ _ _ : : : : : : : < < < [ [ [ [ [ [ [ } } } } } } } } | | | | | | | 1 1 1 1 1 1 1 2 2 2 2 2 3 3 3 3 3 3 3 4 4 4 4 4 4 4 4 5 5 5 6 6 6 6 6 6 6 7 7 7 7 ",
": : : : . ! ! ! ! ! ~ ~ ~ { { { { { { { { ] ] ] ] ] ] ] ^ ^ ^ ^ ^ ^ ^ / / / / / / / ( ( ( ( ( _ _ _ _ _ _ _ _ : : : : : : : < < < [ [ [ [ [ [ [ } } } } } } } } | | | | | | | 1 1 1 1 1 1 1 2 2 2 2 2 3 3 3 3 3 3 3 4 4 4 4 4 4 4 4 5 5 5 6 6 6 6 6 6 6 7 7 7 7 ",
"< < < < < . { { { { ] ] ] ] ] ^ ^ ^ ^ ^ ^ ^ ^ ^ ^ / / / / / / / / / / ( ( ( ( ( ( ( _ _ _ _ _ _ _ : : : : : : : : : : < < < < < < < < < < [ [ [ [ [ } } } } } } } } } } | | | | | | | | | 1 1 1 1 1 1 1 1 1 1 2 2 2 2 2 2 2 2 2 2 2 3 3 3 3 4 4 4 4 4 4 4 4 4 5 ",
"} } } } } . { { { { ] ] ] ] ] ^ ^ ^ ^ ^ ^ ^ ^ ^ ^ / / / / / / / / / / ( ( ( ( ( ( ( _ _ _ _ _ _ _ : : : : : : : : : : < < < < < < < < < < [ [ [ [ [ } } } } } } } } } } | | | | | | | | | 1 1 1 1 1 1 1 1 1 1 2 2 2 2 2 2 2 2 2 2 2 3 3 3 3 4 4 4 4 4 4 4 4 4 5 ",
"} } } } } . ^ ^ ^ ^ ^ ^ ^ ^ ^ ^ ^ ^ ^ / / / / / / / / / / / / / / / ( ( ( ( ( ( ( ( ( ( ( ( ( ( ( _ _ _ _ _ _ _ : : : : : : : : : : : : : : : < < < < < < < < < < < < < < < [ [ [ [ [ [ [ [ [ [ [ [ [ [ } } } } } } } } | | | | | | | | | | | | | | 1 1 1 1 1 1 ",
"| | | | | . ^ ^ ^ ^ ^ ^ ^ ^ ^ ^ ^ ^ ^ / / / / / / / / / / / / / / / ( ( ( ( ( ( ( ( ( ( ( ( ( ( ( _ _ _ _ _ _ _ : : : : : : : : : : : : : : : < < < < < < < < < < < < < < < [ [ [ [ [ [ [ [ [ [ [ [ [ [ } } } } } } } } | | | | | | | | | | | | | | 1 1 1 1 1 1 ",
"1 1 1 1 1 1 . : : : : : : : : : : : : : : : : : : : : : : : : : : : : : : : : : : : : : : : : : : : : : : : : : : : : : : : : : : : : : : : : : : : : : : : : : : : : : : : : : : : : : : : : : : : : : : : : : : : : : : : : : : : : : : : : : : : : : : : : : ",
"1 1 1 1 1 1 . : : : : : : : : : : : : : : : : : : : : : : : : : : : : : : : : : : : : : : : : : : : : : : : : : : : : : : : : : : : : : : : : : : : : : : : : : : : : : : : : : : : : : : : : : : : : : : : : : : : : : : : : : : : : : : : : : : : : : : : : : ",
". . . . . . . . . . . . . . . . . . . . . . . . . . . . . . . . . . . . . . . . . . . . . . . . . . . . . . . . . . . . . . . . . . . . . . . . . . . . . . . . . . . . . . . . . . . . . . . . . . . . . . . . . . . . . . . . . . . . . . . . . . . . . . . . "};
