/* XPM */
static char * menu_active_xpm[] = {
"12 21 10 1",
" 	c None",
".	c #000000",
"+	c #1F3306",
"@	c #111C03",
"#	c #292829",
"$	c #132003",
"%	c #142104",
"&	c #152304",
"*	c #162504",
"=	c #0A1102",
"            ",
"            ",
"            ",
"            ",
"            ",
"            ",
" .......... ",
".+++++++++@.",
".+@@@@@@@@@.",
".+@@@@@@@@@.",
".+@######@@.",
".+$######$@.",
".+%%####%%@.",
".+&&&##&&&@.",
".+&&&&&&&&@.",
".+********@.",
".=========@.",
" .......... ",
"            ",
"            ",
"            "};
