/* XPM */
static char * title_2_active_xpm[] = {
"8 21 21 1",
" 	c None",
".	c #184D63",
"+	c #1E1E1E",
"@	c #101010",
"#	c #232323",
"$	c #111111",
"%	c #212121",
"&	c #121212",
"*	c #1F1F1F",
"=	c #131313",
"-	c #141414",
";	c #151515",
">	c #161616",
",	c #1D1D1D",
"'	c #171717",
")	c #1C1C1C",
"!	c #181818",
"~	c #191919",
"{	c #1B1B1B",
"]	c #0C0C0C",
"^	c #1A1A1A",
"        ",
"   .....",
"  .+++++",
"...+@@@@",
"##.+$$$$",
"%%.+$$$$",
"%%.+&&&&",
"**.+====",
"**.+----",
"**.+----",
"++.+;;;;",
"++.+>>>>",
",,.+''''",
",,.+''''",
")).+!!!!",
")).+~~~~",
"{{.$]]]]",
"{{{.....",
"^^^^^^^^",
";;;;;;;;",
"........"};
