/* XPM */
static char * bottom_right_inactive_xpm[] = {
"52 14 43 1",
" 	c None",
".	c #000000",
"+	c #2D2D2D",
"@	c #0A0A0A",
"#	c #080808",
"$	c #040404",
"%	c #0B0B0B",
"&	c #060606",
"*	c #070707",
"=	c #2B2B2B",
"-	c #090909",
";	c #6A6A6A",
">	c #767676",
",	c #0C0C0C",
"'	c #101010",
")	c #0D0D0D",
"!	c #0F0F0F",
"~	c #131313",
"{	c #151515",
"]	c #0E0E0E",
"^	c #181818",
"/	c #191919",
"(	c #1E1E1E",
"_	c #232323",
":	c #1F1F1F",
"<	c #1D1D1D",
"[	c #1A1A1A",
"}	c #272727",
"|	c #252525",
"1	c #121212",
"2	c #020202",
"3	c #050505",
"4	c #171717",
"5	c #333333",
"6	c #373737",
"7	c #1B1B1B",
"8	c #161616",
"9	c #313131",
"0	c #6F6F6F",
"a	c #777777",
"b	c #7B7B7B",
"c	c #878787",
"d	c #7F7F7F",
"                                           .+++@#$@.",
"............................................+++%#&@.",
".............................................++@*$@.",
"=======.......................................+%%-@.",
";;;;>>=........................................@#$@.",
";;;;>>=@@@@#@#@@@###-@%#&,@&@@,,,',))))))))@,&..$$@.",
"=======*#&@$,&%#@,%#@&&#!$#-@,@'~~~{~{{{{{~~'),#,$@.",
"......#,@,*,*]@,%&$%&],#$@%@,''^{/(_:_:_::<[/{'###@.",
".....$,]@#%&@&@#&]@--&$,@@%,,)~/<_}==|=====_:({~&$@.",
"....$&&.&$'$1&'@1$'2~&1$'+-@3#]4:=566666665=}::~~$@.",
"   .7&#@.@${#{%'@{&8&{#~*89@)@1>>00aabb00000>}<<),@.",
"    .:&$2.%$'&!#'&1$~$'&1.'9)]1<>00aaaaaaaab0>_1)3@.",
"     .+$&$$$&&$$$$&$&$$$$#$&@'{[}>cbbbbbbbbb>>d1@%%.",
"      ......................*)~{[:_=======}}_<4@3.. "};
