/* XPM */
static char * close_active_xpm[] = {
"21 21 6 1",
" 	c None",
".	c #292C29",
"+	c #313031",
"@	c #080C08",
"#	c #000000",
"$	c #76D1D1",
"                     ",
"                     ",
"                     ",
"  .+++++++++++++++.  ",
"  +@#############@+  ",
"  +#@@@@@@@@@@@@@#+  ",
"  +#@@$$@@@@@$$@@#+  ",
"  +#@@@$$@@@$$@@@#+  ",
"  +#@@@@$$@$$@@@@#+  ",
"  +#@@@@@$$$@@@@@#+  ",
"  +#@@@@@$$$@@@@@#+  ",
"  +#@@@@$$@$$@@@@#+  ",
"  +#@@@$$@@@$$@@@#+  ",
"  +#@@$$@@@@@$$@@#+  ",
"  +#@@@@@@@@@@@@@#+  ",
"  +#@@@@@@@@@@@@@#+  ",
"  +@#############@+  ",
"  .+++++++++++++++.  ",
"                     ",
"                     ",
"                     "};
