/* XPM */
static char * right_active_xpm[] = {
"9 64 4 1",
" 	c None",
".	c #000000",
"+	c #383838",
"@	c #0D0D0D",
".+++@@@@.",
".+++@@@@.",
".+++@@@@.",
".+++@@@@.",
".+++@@@@.",
".+++@@@@.",
".+++@@@@.",
".+++@@@@.",
".+++@@@@.",
".+++@@@@.",
".+++@@@@.",
".+++@@@@.",
".+++@@@@.",
".+++@@@@.",
".+++@@@@.",
".+++@@@@.",
".+++@@@@.",
".+++@@@@.",
".+++@@@@.",
".+++@@@@.",
".+++@@@@.",
".+++@@@@.",
".+++@@@@.",
".+++@@@@.",
".+++@@@@.",
".+++@@@@.",
".+++@@@@.",
".+++@@@@.",
".+++@@@@.",
".+++@@@@.",
".+++@@@@.",
".+++@@@@.",
".+++@@@@.",
".+++@@@@.",
".+++@@@@.",
".+++@@@@.",
".+++@@@@.",
".+++@@@@.",
".+++@@@@.",
".+++@@@@.",
".+++@@@@.",
".+++@@@@.",
".+++@@@@.",
".+++@@@@.",
".+++@@@@.",
".+++@@@@.",
".+++@@@@.",
".+++@@@@.",
".+++@@@@.",
".+++@@@@.",
".+++@@@@.",
".+++@@@@.",
".+++@@@@.",
".+++@@@@.",
".+++@@@@.",
".+++@@@@.",
".+++@@@@.",
".+++@@@@.",
".+++@@@@.",
".+++@@@@.",
".+++@@@@.",
".+++@@@@.",
".+++@@@@.",
".+++@@@@."};
