/* XPM */
static char * shade_toggled_prelight_xpm[] = {
"21 21 176 2",
"  	c None",
". 	c #035176",
"+ 	c #055178",
"@ 	c #1D79AB",
"# 	c #1D78AB",
"$ 	c #1C78AB",
"% 	c #055278",
"& 	c #045278",
"* 	c #035076",
"= 	c #0174AE",
"- 	c #007BC4",
"; 	c #0386D1",
"> 	c #1B8ECF",
", 	c #2090D0",
"' 	c #2593D1",
") 	c #2895D1",
"! 	c #2995D1",
"~ 	c #2594D0",
"{ 	c #2191CF",
"] 	c #1395DF",
"^ 	c #1394DF",
"/ 	c #0BC3FD",
"( 	c #14C7FD",
"_ 	c #1CC9FD",
": 	c #22CDFD",
"< 	c #26CEFD",
"[ 	c #28CFFD",
"} 	c #23CCFD",
"| 	c #1DCAFD",
"1 	c #209BE1",
"2 	c #1896E0",
"3 	c #0387D1",
"4 	c #0BC2FD",
"5 	c #17C8FD",
"6 	c #21CCFD",
"7 	c #2BD3FD",
"8 	c #33DBFD",
"9 	c #38DDFD",
"0 	c #3ADCFD",
"a 	c #36D5FD",
"b 	c #33D3FD",
"c 	c #2CD1FD",
"d 	c #24CDFD",
"e 	c #239CE1",
"f 	c #0989D2",
"g 	c #045178",
"h 	c #1B8FCF",
"i 	c #09C1FD",
"j 	c #15C7FD",
"k 	c #277676",
"l 	c #277777",
"m 	c #30D2FD",
"n 	c #2A95D1",
"o 	c #085278",
"p 	c #1C79AB",
"q 	c #10C5FD",
"r 	c #1DCBFD",
"s 	c #287979",
"t 	c #297C7C",
"u 	c #3BD7FD",
"v 	c #2ED2FD",
"w 	c #3399D2",
"x 	c #277DAC",
"y 	c #24CEFD",
"z 	c #37E0FD",
"A 	c #53E7FD",
"B 	c #44DBFD",
"C 	c #37D5FD",
"D 	c #3A9CD3",
"E 	c #2D7FAD",
"F 	c #1C8FCF",
"G 	c #19C8FD",
"H 	c #2AD1FD",
"I 	c #3DE5FD",
"J 	c #4FFAFD",
"K 	c #6EFCFD",
"L 	c #5BEBFD",
"M 	c #4BDDFD",
"N 	c #3CD7FD",
"O 	c #3F9ED3",
"P 	c #3181AE",
"Q 	c #1E90CF",
"R 	c #1BCAFD",
"S 	c #2CD2FD",
"T 	c #40E4FD",
"U 	c #53FBFD",
"V 	c #62FDFD",
"W 	c #85FDFD",
"X 	c #75FCFD",
"Y 	c #60EDFD",
"Z 	c #4EDFFD",
"` 	c #3FD8FD",
" .	c #419FD4",
"..	c #3382AE",
"+.	c #1E8FCF",
"@.	c #2BD0FD",
"#.	c #3DDEFD",
"$.	c #50F5FD",
"%.	c #72FDFD",
"&.	c #80FDFD",
"*.	c #8AFDFD",
"=.	c #83FDFD",
"-.	c #73FCFD",
";.	c #5FE8FD",
">.	c #419FD3",
",.	c #1C8ECF",
"'.	c #18C8FD",
").	c #29CEFD",
"!.	c #39D7FD",
"~.	c #49E7FD",
"{.	c #5AF9FD",
"].	c #6AFDFD",
"^.	c #75FDFD",
"/.	c #7AFCFD",
"(.	c #74FCFD",
"_.	c #67EFFD",
":.	c #57E2FD",
"<.	c #49DDFD",
"[.	c #3E9ED4",
"}.	c #195A7B",
"|.	c #13C7FD",
"1.	c #23CDFD",
"2.	c #31D2FD",
"3.	c #41DAFD",
"4.	c #4EE5FD",
"5.	c #5BF0FD",
"6.	c #63F4FD",
"7.	c #66F3FD",
"8.	c #62EBFD",
"9.	c #59E3FD",
"0.	c #42DAFD",
"a.	c #35D4FD",
"b.	c #2093D4",
"c.	c #14587A",
"d.	c #007AC4",
"e.	c #1996DF",
"f.	c #259DE1",
"g.	c #29CFFD",
"h.	c #36D4FD",
"i.	c #41D9FD",
"j.	c #4BDFFD",
"k.	c #51E1FD",
"l.	c #52E1FD",
"m.	c #51E0FD",
"n.	c #4BDEFD",
"o.	c #43A9E5",
"p.	c #37A4E3",
"q.	c #1384C7",
"r.	c #0D5579",
"s.	c #0D8AD2",
"t.	c #3198D2",
"u.	c #3C9DD3",
"v.	c #46A0D4",
"w.	c #4FA4D6",
"x.	c #53A7D6",
"y.	c #55A7D6",
"z.	c #54A7D6",
"A.	c #50A5D5",
"B.	c #48A2D4",
"C.	c #2796D5",
"D.	c #1686C7",
"E.	c #0E7AB0",
"F.	c #065278",
"G.	c #065178",
"H.	c #0F5779",
"I.	c #3281AD",
"J.	c #3A85AF",
"K.	c #4188B0",
"L.	c #468AB0",
"M.	c #478BB0",
"N.	c #478AB0",
"O.	c #4388AF",
"P.	c #245F7B",
"Q.	c #1C5B7B",
"R.	c #12577A",
"S.	c #095278",
"                                          ",
"                                          ",
"                                          ",
"    . + + + + @ @ # $ # @ # % & + % *     ",
"    + = - ; > > , ' ) ! ) ~ { ; - = +     ",
"    + - ] ^ / ( _ : < [ < } | 1 2 - %     ",
"    % 3 ] 4 5 6 7 8 9 0 a b c d e f +     ",
"    g h i j k k l l l l l l k m d n o     ",
"    p > q r k k l l s t l l k u v w x     ",
"    $ > j y z k k l l l l l A B C D E     ",
"    # F G H I J k k l l l K L M N O P     ",
"    @ Q R S T U V k k k W X Y Z `  ...    ",
"    # +.R @.#.$.V %.&.*.=.-.;.Z ` >...    ",
"    @ ,.'.).!.~.{.].^./.(._.:.<.u [.}.    ",
"    + > |.1.2.3.4.5.6.7.8.9.Z 0.a.b.c.    ",
"    + d.e.f.g.h.i.j.k.l.m.n.0.o.p.q.r.    ",
"    & = - s.t.u.v.w.x.y.z.A.B.C.D.E.F.    ",
"    * + + G.H.I.J.K.L.M.N.O.P.Q.R.S.*     ",
"                                          ",
"                                          ",
"                                          "};
