/* XPM */
static char * title_1_active_xpm[] = {
"8 26 27 1",
" 	c None",
".	c #434342",
"+	c #484848",
"@	c #454545",
"#	c #4D4D4D",
"$	c #161717",
"%	c #070707",
"&	c #181818",
"*	c #080808",
"=	c #121212",
"-	c #0D0D0D",
";	c #060709",
">	c #0E0E0E",
",	c #1C1C1C",
"'	c #1B1B1B",
")	c #101010",
"!	c #191919",
"~	c #1E1E1E",
"{	c #141515",
"]	c #050505",
"^	c #0A0A0A",
"/	c #0C0C0C",
"(	c #383838",
"_	c #000000",
":	c #010101",
"<	c #020202",
"[	c #030303",
"        ",
".+@+@@@#",
"$%&*=-$;",
">,>')!-~",
"{]&*=^{/",
"((((((((",
"((((((((",
"((((((((",
"((((((((",
"((((((((",
"((((((((",
"((((((((",
"((((((((",
"((((((((",
"((((((((",
"((((((((",
"((((((((",
"((((((((",
"((((((((",
"((((((((",
"((((((((",
"((((((((",
"--------",
"--------",
"--------",
"_:<[<___"};
