/* XPM */
static char * close_prelight_xpm[] = {
"46 31 167 2",
"  	c None",
". 	c #000000",
"+ 	c #3D4748",
"@ 	c #353C3D",
"# 	c #282E2F",
"$ 	c #4C4C4C",
"% 	c #444444",
"& 	c #363636",
"* 	c #353535",
"= 	c #3A3A3A",
"- 	c #484848",
"; 	c #434343",
"> 	c #323232",
", 	c #283031",
"' 	c #293435",
") 	c #2A3437",
"! 	c #2A3637",
"~ 	c #3C3C3C",
"{ 	c #505050",
"] 	c #393939",
"^ 	c #282F30",
"/ 	c #2B3839",
"( 	c #2D3E3F",
"_ 	c #2D4143",
": 	c #343434",
"< 	c #4F4F4F",
"[ 	c #2C3B3D",
"} 	c #2F4344",
"| 	c #324B4E",
"1 	c #335052",
"2 	c #345355",
"3 	c #3B3B3B",
"4 	c #3E3E3E",
"5 	c #375C5E",
"6 	c #395F62",
"7 	c #3B6667",
"8 	c #494949",
"9 	c #303030",
"0 	c #80FDFF",
"a 	c #417779",
"b 	c #457E81",
"c 	c #478487",
"d 	c #383838",
"e 	c #373737",
"f 	c #151819",
"g 	c #182223",
"h 	c #1B2A2B",
"i 	c #233E3F",
"j 	c #2B4F51",
"k 	c #35686B",
"l 	c #397174",
"m 	c #3C787A",
"n 	c #040809",
"o 	c #081415",
"p 	c #102526",
"q 	c #19383A",
"r 	c #28595B",
"s 	c #0B0B0B",
"t 	c #0F0F0F",
"u 	c #020607",
"v 	c #050C0D",
"w 	c #0B1A1B",
"x 	c #1B3E3F",
"y 	c #1E4446",
"z 	c #080808",
"A 	c #010203",
"B 	c #071011",
"C 	c #122A2B",
"D 	c #132E2F",
"E 	c #040404",
"F 	c #000001",
"G 	c #0A1819",
"H 	c #010101",
"I 	c #020202",
"J 	c #040A0B",
"K 	c #050606",
"L 	c #030404",
"M 	c #000101",
"N 	c #000A0B",
"O 	c #010202",
"P 	c #020303",
"Q 	c #001112",
"R 	c #001011",
"S 	c #000E0F",
"T 	c #010D0E",
"U 	c #010C0D",
"V 	c #010C0C",
"W 	c #010B0B",
"X 	c #01090A",
"Y 	c #010707",
"Z 	c #010606",
"` 	c #010505",
" .	c #010404",
"..	c #010303",
"+.	c #001D1F",
"@.	c #001C1E",
"#.	c #001B1D",
"$.	c #001A1C",
"%.	c #00191B",
"&.	c #00181A",
"*.	c #001416",
"=.	c #001113",
"-.	c #000B0C",
";.	c #000809",
">.	c #000707",
",.	c #000505",
"'.	c #002C30",
").	c #002A2E",
"!.	c #00292D",
"~.	c #00292C",
"{.	c #00282B",
"].	c #00272A",
"^.	c #002427",
"/.	c #001F22",
"(.	c #001719",
"_.	c #001315",
":.	c #000D0E",
"<.	c #000909",
"[.	c #003D42",
"}.	c #003B40",
"|.	c #003A3F",
"1.	c #00393E",
"2.	c #00383D",
"3.	c #00373C",
"4.	c #00363A",
"5.	c #003236",
"6.	c #002D31",
"7.	c #002225",
"8.	c #001D20",
"9.	c #001415",
"0.	c #004D53",
"a.	c #004B51",
"b.	c #004A50",
"c.	c #00494F",
"d.	c #00484E",
"e.	c #00474C",
"f.	c #004449",
"g.	c #003F44",
"h.	c #003438",
"i.	c #002629",
"j.	c #001314",
"k.	c #00585F",
"l.	c #00575E",
"m.	c #00565D",
"n.	c #00565C",
"o.	c #00555B",
"p.	c #005359",
"q.	c #004F55",
"r.	c #00464B",
"s.	c #002F33",
"t.	c #002125",
"u.	c #11FDF6",
"v.	c #0DF1F5",
"w.	c #0BEEF4",
"x.	c #0AEAF2",
"y.	c #09E6F1",
"z.	c #08E0EC",
"A.	c #06D8E5",
"B.	c #05CDDD",
"C.	c #04C0D0",
"D.	c #03B1C1",
"E.	c #029EAD",
"F.	c #018796",
"G.	c #01737F",
"H.	c #00606B",
"I.	c #00525B",
"J.	c #00343A",
". . . . . . . . . . . . . . . . . . . . . . . . . . . . . . . . . . . . . . . . . . . . . . ",
"+ + + + + + + + + + + + + + + + + + + + + + + + + + + + + + + + + + + + + + + + + + + + + + ",
"@ @ @ @ @ @ @ @ @ @ @ @ @ @ @ @ @ @ @ @ @ @ @ @ @ @ @ @ @ @ @ @ @ @ @ @ @ @ @ @ @ @ @ @ @ @ ",
"# # # # # # # # # # # # # # # # # # # # # # # # # # # # # # # # # # # # # # # # # # # # # # ",
"# # # # # # # # # # # # # # # # # # # # # # # # # # # # # # # # # # # # # # # # # # # # # # ",
"# # # # # # # # # # # # # # # # # # # # # # # # # # # # # # # # # # # # # # # # # # # # # # ",
"+ + + + + + + + + + + + + + + + + + + + + + + + + + + + + + + + + + + $ % & # # # # # # # # ",
"# # # # # # # # # # # # # # # # # # # # # # # # # # # # # # # # # # # * = - ; > # # # # # # ",
"# # # # # # # # # # # # # # # # # # # # , ' ) ! ! ! ) ' , # # # # # # # # # ~ { ] # # # # # ",
"# # # # # # # # # # ^ # # # # # # # # , ' / ( ( _ ( ( / ' , # # # # # # # # # : < # # # # # ",
"# # # # # # # # # ^ # # # # # # # # , ' [ } | 1 2 1 | } [ ' , # # # # # # # # # 3 4 # # # # ",
"# # # # # # # # # # # # # # # # # # ' / } | 5 6 7 6 5 | } / ' # # # # # # # # # # 8 9 # # # ",
"# # # # # # # # # # # # # # # # # # ) ( | 5 0 a 0 a 0 5 | ( ) # # # # # # # # # # 4 * # # # ",
"# # # # # # # # # # # # # # # # # # ! ( 1 6 a b c b a 6 1 ( ! # # # # # # # # # # d d # # # ",
"# # # # # # # # # # # # # # # # # # ! _ 2 7 0 c 0 c 0 7 2 _ ! # # # # # # # # # # e d # # # ",
"f f f f f f f f f f f f f f f f f f g h i j k l m l k j i h g f f f f f f f f f f f f f f f ",
". . . . . . . . . . . . . . . . . . n o p q 0 r 0 r 0 q p o n . . . . . . . . . . s t . . . ",
". . . . . . . . . . . . . . . . . . u v w p q x y x q p w v u . . . . . . . . . . t z . . . ",
". . . . . . . . . . . . . . . . . . A u B w p C D C p w B u A . . . . . . . . . E z . . . . ",
". . . . . . . . . . . . . . . . . . F A u v o o G o o v u A F . . . . . . . . H z I . . . . ",
". . . . . . . . . . . . . . . . . . . F A u n J J J n u A F . . . . . . . . H K L M . . . . ",
"N N N N N N N N N N N N N N N N N N N N N N N N N N N N N N N . . . . . . O L P M M . . . . ",
"Q Q Q Q Q Q Q Q Q Q Q Q Q Q Q Q Q Q Q Q Q Q Q Q Q Q Q Q Q Q Q Q Q R S T U V W X Y Z `  . ...",
"+.+.+.+.+.+.+.+.+.+.+.+.+.+.+.+.+.+.+.+.+.+.+.+.+.+.+.+.+.+.+.+.@.@.@.#.$.%.&.*.=.S -.;.>.,.",
"'.'.'.'.'.'.'.'.'.'.'.'.'.'.'.'.'.'.'.'.'.'.'.'.'.'.'.'.'.'.'.).).).!.~.{.].^./.@.(._.S :.<.",
"[.[.[.[.[.[.[.[.[.[.[.[.[.[.[.[.[.[.[.[.[.[.[.[.[.[.[.[.[.[.[.}.}.|.1.2.3.4.5.6.~.7.8.(.9.:.",
"0.0.0.0.0.0.0.0.0.0.0.0.0.0.0.0.0.0.0.0.0.0.0.0.0.0.0.0.0.0.0.a.a.b.c.d.e.f.g.|.h.'.i./.#.j.",
"k.k.k.k.k.k.k.k.k.k.k.k.k.k.k.k.k.k.k.k.k.k.k.k.k.k.k.k.k.k.k.l.l.m.n.o.p.q.b.r.g.4.s.~.t.(.",
"u.u.u.u.u.u.u.u.u.u.u.u.u.u.u.u.u.u.u.u.u.u.u.u.u.u.u.u.u.u.u.v.w.x.y.z.A.B.C.D.E.F.G.H.I.J.",
". . . . . . . . . . . . . . . . . . . . . . . . . . . . . . . . . . . . . . . . . . . . . . ",
". . . . . . . . . . . . . . . . . . . . . . . . . . . . . . . . . . . . . . . . . . . . . . "};
