/* XPM */
static char * maximize_prelight_xpm[] = {
"31 30 75 1",
" 	c None",
".	c #3D4748",
"+	c #353C3D",
"@	c #282E2F",
"#	c #282F30",
"$	c #283132",
"%	c #283133",
"&	c #283233",
"*	c #293435",
"=	c #2B3839",
"-	c #2D3E3F",
";	c #2F4446",
">	c #304749",
",	c #314B4C",
"'	c #2F4344",
")	c #324B4E",
"!	c #375C5E",
"~	c #395F62",
"{	c #3B6667",
"]	c #2A3637",
"^	c #335052",
"/	c #417779",
"(	c #457E81",
"_	c #478487",
":	c #2B3A3B",
"<	c #80FDFF",
"[	c #53A0A3",
"}	c #283435",
"|	c #3D696C",
"1	c #5BB0B4",
"2	c #283637",
"3	c #334F50",
"4	c #3E6D6F",
"5	c #48888B",
"6	c #5EB5B9",
"7	c #151819",
"8	c #1B2A2B",
"9	c #21393B",
"0	c #2F5A5C",
"a	c #3C787A",
"b	c #54A8AC",
"c	c #162122",
"d	c #000000",
"e	c #050E0F",
"f	c #0D1F20",
"g	c #1B3E3F",
"h	c #28595B",
"i	c #418B8E",
"j	c #010708",
"k	c #040A0B",
"l	c #081415",
"m	c #122A2B",
"n	c #2D6265",
"o	c #306A6C",
"p	c #010506",
"q	c #020607",
"r	c #050C0D",
"s	c #0B1A1B",
"t	c #102526",
"u	c #19383A",
"v	c #1E4446",
"w	c #000304",
"x	c #000001",
"y	c #0C1B1D",
"z	c #0F2324",
"A	c #000102",
"B	c #010405",
"C	c #000A0B",
"D	c #001112",
"E	c #001D1F",
"F	c #002C30",
"G	c #003D42",
"H	c #004D53",
"I	c #00585F",
"J	c #11FDF6",
"...............................",
"+++++++++++++++++++++++++++++++",
"@@@@@@@@@@@@@@@@@@@@@@@@@@@@@@@",
"@@@@@@@@@@@@@@@@@@@@@@@@@@@@@@@",
"@@@@@@@@@@@@@@@@@@@@@@@@@@@@@@@",
"...............................",
"@@@@@@@@@@@@@@@@@@@@@@@@@@@@@@@",
"@@@@@@@@@@@@@@@@@@@#$%&&&%$#@@@",
"@@@@@@@@@@#@@@@@@@*=-;>,>;-=*@@",
"@@@@@@@@@#@@@@@@@*=')!~{~!)'=$@",
"@@@@@@@@@@@@@@@@@]-^~/(_(/~^-&@",
"@@@@@@@@@@@@@@@@@:>~/<[<[</~>}@",
"@@@@@@@@@@@@@@@@@-)|_<1<1<_|)2@",
"@@@@@@@@@@@@@@@@@-345<6<6<5432@",
"77777777777777777890a<b<b<a09c7",
"dddddddddddddddddefgh<i<i<hgfjd",
"dddddddddddddddddklmghnonhgmlpd",
"dddddddddddddddddqrstugvgutsrwd",
"dddddddddddddddddxqrlyfzfylrqxd",
"ddddddddddddddddddxAwBpppBwAxdd",
"CCCCCCCCCCCCCCCCCCCCCCCCCCCCCCC",
"DDDDDDDDDDDDDDDDDDDDDDDDDDDDDDD",
"EEEEEEEEEEEEEEEEEEEEEEEEEEEEEEE",
"FFFFFFFFFFFFFFFFFFFFFFFFFFFFFFF",
"GGGGGGGGGGGGGGGGGGGGGGGGGGGGGGG",
"HHHHHHHHHHHHHHHHHHHHHHHHHHHHHHH",
"IIIIIIIIIIIIIIIIIIIIIIIIIIIIIII",
"JJJJJJJJJJJJJJJJJJJJJJJJJJJJJJJ",
"ddddddddddddddddddddddddddddddd",
"ddddddddddddddddddddddddddddddd"};
