/* XPM */
static char * bottom_left_inactive_xpm[] = {
"22 35 5 1",
" 	c None",
".	c #566157",
"+	c #101311",
"@	c #556057",
"#	c #000000",
".++.                  ",
"@++.                  ",
"@++.                  ",
".++@                  ",
".++.                  ",
"@++.                  ",
".++.                  ",
"@++@                  ",
"@++.                  ",
".++.                  ",
".++.                  ",
".++@                  ",
"@++@                  ",
"@++.                  ",
".++.                  ",
".++.                  ",
".++.                  ",
".++....@@@..@@.@@@@.@@",
".+++++++++++++++++.###",
".++++++++++++++++++@##",
" .++++++++++++++++++@#",
"  .....@@.+++++++++++.",
"          @+++++++++++",
"           .++++++++++",
"            .+++++++++",
"             .++++++++",
"              @+++++++",
"               .++++++",
"                .....@",
"                      ",
"                      ",
"                      ",
"                      ",
"                      ",
"                      "};
