/* XPM */
static char * bottom_right_inactive_xpm[] = {
"36 35 5 1",
" 	c None",
".	c #556057",
"+	c #000000",
"@	c #566157",
"#	c #101311",
"                                .++@",
"                                .++@",
"                                .++.",
"                                @++@",
"                                .++.",
"                                .++.",
"                                @++@",
"                                .++@",
"                                .++.",
"                                .++@",
"                                @++@",
"                                @++@",
"                                @++.",
"                                @++.",
"                                @++.",
"                                .++.",
"                                .++@",
"@@.@.@.@.@.......@@..@@.@@@@@.@@.++.",
"+++++++++++++++++++++++++++++++++++@",
"+++++++++++++++++++++++++++++++++++@",
"+++++++++++++++++++++++++++++++++++.",
"++++++++++++++++++++++++++++++.++++@",
".++++++++++++++++++++++++++++++++++@",
"#@++++++++++++++++++++++++++@+@++++.",
"##@.@..@@++++++++++++++++++++++++++@",
"#########@++++++++++++++++@+.+@++++@",
"##########@++++++++++++++++++++++++.",
"###########.++++++++++++@+@+.+@++++.",
"..@@@@..@...@++++++++++++++++++++++@",
"             .++++++++.+.+.+@+.++++.",
"              @++++++++++++++++++++.",
"               @+++++++++++++++++++@",
"                @++++++++++++++++++.",
"                 .++++++++++++++++. ",
"                  @@.@..@.@..@..@.  "};
