/* XPM */
static char * right_inactive_xpm[] = {
"4 64 4 1",
" 	c None",
".	c #566157",
"+	c #000000",
"@	c #556057",
".++@",
"@++.",
".++.",
"@++.",
"@++.",
".++.",
"@++@",
"@++.",
"@++@",
".++@",
"@++@",
".++@",
"@++@",
".++@",
"@++@",
"@++.",
".++.",
".++.",
"@++@",
"@++.",
".++.",
"@++.",
"@++.",
".++.",
".++@",
".++.",
"@++.",
"@++.",
"@++.",
"@++@",
"@++.",
"@++.",
"@++@",
".++.",
"@++.",
"@++@",
"@++.",
".++@",
"@++.",
"@++@",
".++@",
".++.",
".++.",
".++.",
".++@",
".++.",
".++.",
"@++.",
".++@",
".++@",
"@++@",
".++.",
".++.",
".++@",
"@++@",
"@++.",
".++.",
"@++.",
"@++@",
".++.",
".++@",
".++.",
"@++.",
".++."};
