/* XPM */
static char * title_2_inactive_xpm[] = {
"8 21 5 1",
" 	c None",
".	c #5E695F",
"+	c #5D685E",
"@	c #0B0C0B",
"#	c #000000",
"        ",
"   .+.+.",
"  .@@@@@",
"+..@+@@@",
"##+@.@.@",
"##.@.@@@",
"##.@+@+@",
"##+@+@@@",
"##.@.@+@",
"##.@.@@@",
"##+@.@.@",
"##+@+@@@",
"##+@.@.@",
"##.@.@@@",
"##.@.@+@",
"##.@+@@@",
"##+@@@@@",
"###++..+",
"########",
"########",
"+..+...+"};
