/* XPM */
static char * top_right_active_xpm[] = {
"21 21 4 1",
" 	c None",
".	c #39AEAE",
"+	c #3AAFAF",
"@	c #000000",
"                     ",
"                     ",
"                     ",
".++.+.++++++++..+..  ",
"@@@@@@@@@@@@@@@@@@@. ",
"@@@@@@@@@@@@@@@@@@@@+",
".@.@.@+@+@+@+@.@+@@@.",
"@@@@@@@@@@@@@@@@@@@@.",
"+@.@.@.@.@.@+@+@.@@@.",
"@@@@@@@@@@@@@@@@@@@@.",
"+@.@+@+@+@+@.@+@.@@@.",
"@@@@@@@@@@@@@@@@@@@@+",
"+@.@.@.@.@+@.@.@+@@@+",
"@@@@@@@@@@@@@@@@@@@@.",
".@+@+@+@.@+@.@.@.@@@+",
"@@@@@@@@@@@@@@@@@@@@+",
"+@.@.@+@+@.@.@.@+@@@+",
"@@@@@@@@@@@@@@@@@@@@+",
"@@@@@@@@@@@@@@@@@@@@.",
"@@@@@@@@@@@@@@@@@@@@.",
"+..+.+...++...+++.@@+"};
