/* XPM */
static char * hide_active_xpm[] = {
"28 20 3 1",
" 	c None",
".	c #5AF3F7",
"+	c #000000",
"............................",
"............................",
"++++++++++++++++++++++++++++",
"++++++++++++++++++++++++++++",
"++++++++++++++++++++++++++++",
"++++++++++++++++++++++++++++",
"+++++.+++.++...++...++++++++",
"+++++.+++.+++.+++.++.+++++++",
"+++++.+++.+++.+++.+++.++++++",
"+++++.....+++.+++.+++.++++++",
"+++++.+++.+++.+++.+++.++++++",
"+++++.+++.+++.+++.+++.++++++",
"+++++.+++.+++.+++.++.+++++++",
"+++++.+++.++...++...++++++++",
"++++++++++++++++++++++++++++",
"++++++++++++++++++++++++++++",
"++++++++++++++++++++++++++++",
"++++++++++++++++++++++++++++",
"++++++++++++++++++++++++++++",
"++++++++++++++++++++++++++++"};
