/* XPM */
static char * maximize_inactive_xpm[] = {
"28 20 4 1",
" 	c None",
".	c #87A68D",
"+	c #000000",
"@	c #80A187",
"............................",
"............................",
"++++++++++++++++++++++++++++",
"++++++++++++++++++++++++++++",
"++++++++++++++++++++++++++++",
"++++++++++++++++++++++++++++",
"+++++@+++@++@@@++@+++@++++++",
"+++++@@+@@+@+++@+@+++@++++++",
"+++++@+@+@+@+++@++@+@+++++++",
"+++++@+@+@+@+++@+++@++++++++",
"+++++@+++@+@@@@@+++@++++++++",
"+++++@+++@+@+++@++@+@+++++++",
"+++++@+++@+@+++@+@+++@++++++",
"+++++@+++@+@+++@+@+++@++++++",
"++++++++++++++++++++++++++++",
"++++++++++++++++++++++++++++",
"++++++++++++++++++++++++++++",
"++++++++++++++++++++++++++++",
"++++++++++++++++++++++++++++",
"++++++++++++++++++++++++++++"};
