/* XPM */
static char * close_active_xpm[] = {
"12 21 10 1",
" 	c None",
".	c #030000",
"+	c #360404",
"@	c #1E0202",
"#	c #400404",
"$	c #220202",
"%	c #240202",
"&	c #260202",
"*	c #270303",
"=	c #140101",
"            ",
"            ",
"            ",
"            ",
"            ",
"            ",
" .......... ",
".+++++++++@.",
".+@@@@@@@@@.",
".+@##@@##@@.",
".+@######@@.",
".+$$####$$@.",
".+%%####%%@.",
".+&######&@.",
".+&##&&##&@.",
".+********@.",
".=========@.",
" .......... ",
"            ",
"            ",
"            "};
