/* XPM */
static char * stick_active_xpm[] = {
"12 21 10 1",
" 	c None",
".	c #000000",
"+	c #332D06",
"@	c #1C1803",
"#	c #3C3407",
"$	c #201B03",
"%	c #211D04",
"&	c #231F04",
"*	c #252004",
"=	c #110F02",
"            ",
"            ",
"            ",
"            ",
"            ",
"            ",
" .......... ",
".+++++++++@.",
".+@@@@@@@@@.",
".+@@@#@@#@@.",
".+@@@####@@.",
".+$######$@.",
".+%######%@.",
".+&&&####&@.",
".+&&&#&&#&@.",
".+********@.",
".=========@.",
" .......... ",
"            ",
"            ",
"            "};
