/* XPM */
static char * hide_prelight_xpm[] = {
"25 25 170 2",
"  	c None",
". 	c #394039",
"+ 	c #4A444A",
"@ 	c #414041",
"# 	c #4A3C4A",
"$ 	c #393C39",
"% 	c #524052",
"& 	c #414052",
"* 	c #524041",
"= 	c #413841",
"- 	c #413C41",
"; 	c #413E44",
"> 	c #414047",
", 	c #3F444A",
"' 	c #3E4651",
") 	c #3D4A53",
"! 	c #3D4B54",
"~ 	c #3D4E54",
"{ 	c #3D4851",
"] 	c #3F444E",
"^ 	c #404047",
"/ 	c #3C3E48",
"( 	c #30494C",
"_ 	c #375669",
": 	c #2D5F6D",
"< 	c #2D6271",
"[ 	c #35657E",
"} 	c #2D6677",
"| 	c #35667F",
"1 	c #2D6576",
"2 	c #35637C",
"3 	c #313831",
"4 	c #4A384A",
"5 	c #393439",
"6 	c #313431",
"7 	c #384654",
"8 	c #072426",
"9 	c #0C383C",
"0 	c #0E4A4F",
"a 	c #11565B",
"b 	c #135A61",
"c 	c #125D62",
"d 	c #135D63",
"e 	c #0B383D",
"f 	c #072327",
"g 	c #2D464A",
"h 	c #312C31",
"i 	c #393039",
"j 	c #335064",
"k 	c #71BFD5",
"l 	c #73C1D6",
"m 	c #75C3D8",
"n 	c #75C4D9",
"o 	c #73C3DB",
"p 	c #73C4DC",
"q 	c #75C6DD",
"r 	c #75C6DE",
"s 	c #78C6DE",
"t 	c #7AC8DC",
"u 	c #7CC7DC",
"v 	c #7AC6DB",
"w 	c #78C4D9",
"x 	c #77C4D9",
"y 	c #293031",
"z 	c #292829",
"A 	c #275567",
"B 	c #76C0D4",
"C 	c #000000",
"D 	c #000206",
"E 	c #000C1D",
"F 	c #001C3C",
"G 	c #00244F",
"H 	c #002755",
"I 	c #7BC4D8",
"J 	c #313039",
"K 	c #312831",
"L 	c #292C29",
"M 	c #245B6C",
"N 	c #11545B",
"O 	c #7EC1D3",
"P 	c #000202",
"Q 	c #02295C",
"R 	c #034D9C",
"S 	c #0464BE",
"T 	c #056EC8",
"U 	c #046FCB",
"V 	c #056DC8",
"W 	c #82C4D6",
"X 	c #245C6C",
"Y 	c #202829",
"Z 	c #292429",
"` 	c #22576B",
" .	c #84C0D1",
"..	c #001633",
"+.	c #044A92",
"@.	c #31B4FF",
"#.	c #31AAFF",
"$.	c #88C4D5",
"%.	c #23576B",
"&.	c #292C31",
"*.	c #202020",
"=.	c #313031",
"-.	c #2D5F77",
";.	c #135C63",
">.	c #84BBCA",
",.	c #001A33",
"'.	c #044B94",
").	c #42B5FE",
"!.	c #31B9FF",
"~.	c #90C5D4",
"{.	c #0B4256",
"].	c #7EAFBD",
"^.	c #010C1D",
"/.	c #023367",
"(.	c #0869C1",
"_.	c #0B98F3",
":.	c #88B8C7",
"<.	c #0B4257",
"[.	c #000408",
"}.	c #759EA9",
"|.	c #00050E",
"1.	c #011E3C",
"2.	c #055399",
"3.	c #0B90EA",
"4.	c #8AB4C0",
"5.	c #6A8892",
"6.	c #00142C",
"7.	c #06478A",
"8.	c #7FA2AB",
"9.	c #0A4155",
"0.	c #5B7077",
"a.	c #000D1D",
"b.	c #043668",
"c.	c #0B75C8",
"d.	c #043568",
"e.	c #6E8B92",
"f.	c #0B4155",
"g.	c #0A3D52",
"h.	c #475259",
"i.	c #00060A",
"j.	c #021C37",
"k.	c #034783",
"l.	c #0C73C7",
"m.	c #0C72C7",
"n.	c #5D6B70",
"o.	c #0A3F53",
"p.	c #09384B",
"q.	c #0F4A50",
"r.	c #313338",
"s.	c #000002",
"t.	c #00060E",
"u.	c #033767",
"v.	c #034480",
"w.	c #424B4D",
"x.	c #09384C",
"y.	c #082B39",
"z.	c #101112",
"A.	c #000E1D",
"B.	c #001125",
"C.	c #222425",
"D.	c #000008",
"E.	c #041214",
"F.	c #041821",
"G.	c #02090A",
"H.	c #051D1F",
"I.	c #082529",
"J.	c #092A2F",
"K.	c #0A2E32",
"L.	c #0A2F33",
"M.	c #02090C",
". + @ # . # @ # . $ % $ % $ & $ % $ * $ % $ * $ % ",
"= - ; > , ' ) ! ! ~ ! ! ! ! ! ! ! ! ) { ] ^ ; - = ",
"= = / ( _ : < [ } } | } | } | } | 1 2 : _ ( / 3 4 ",
"5 6 7 8 9 0 a b c d d d d d d d d b a 0 e f g 5 5 ",
"h i j e k l l m n o p q r r r s t u v w x e j y 5 ",
"h z A 0 B C C D E F G H H H G F E D C C I 0 A J z ",
"K L M N O C P E Q R S T U V S R Q E P C W a X Y h ",
"z Z ` b  .C D ..+.@.#.@.#.@.#.@.+...D C $.b %.&.*.",
"=.h -.;.>.C D ,.'.#.).#.!.#.).#.'.,.D C ~.d -.y i ",
"C C {.d ].C P ^./.(._.@.#.@._.(./.^.P C :.d <.[.C ",
"C C {.d }.C C |.1.2.3.#.).#.3.2.1.|.C C 4.d <.[.C ",
"C C {.;.5.C C D 6.7.#.@.#.@.#.7.6.D C C 8.d {.[.C ",
"C C 9.b 0.C C P a.b.c.#.!.#.c.d.a.P C C e.b f.[.C ",
"C C g.N h.C C C i.j.k.l.#.m.k.j.i.C C C n.a o.[.C ",
"C C p.q.r.C C C s.t.j.u.v.u.j.t.s.C C C w.q.x.[.C ",
"C C y.e z.C C C C s.i.A.B.A.i.s.C C C C C.e y.D.C ",
"C C E.8 9 0 a b c d d d d d d d d b a 0 e f F.C C ",
"C C G.E.H.I.J.K.L.L.L.L.L.L.L.L.L.K.J.I.H.E.M.C C ",
"C C C C C C C C C C C C C C C C C C C C C C C C C ",
"C C C C C C C C C C C C C C C C C C C C C C C C C ",
"C C C C C C C C C C C C C C C C C C C C C C C C C ",
"C C C C C C C C C C C C C C C C C C C C C C C C C ",
"C C C C C C C C C C C C C C C C C C C C C C C C C ",
"C C C C C C C C C C C C C C C C C C C C C C C C C ",
"C C C C C C C C C C C C C C C C C C C C C C C C C "};
