/* XPM */
static char * hide_active_xpm[] = {
"25 25 107 2",
"  	c None",
". 	c #394039",
"+ 	c #4A444A",
"@ 	c #414041",
"# 	c #4A3C4A",
"$ 	c #393C39",
"% 	c #524052",
"& 	c #414052",
"* 	c #524041",
"= 	c #413841",
"- 	c #413C41",
"; 	c #413C4A",
"> 	c #393C41",
", 	c #41404A",
"' 	c #313C41",
") 	c #414462",
"! 	c #294452",
"~ 	c #314462",
"{ 	c #394462",
"] 	c #394862",
"^ 	c #29445A",
"/ 	c #39486A",
"( 	c #41486A",
"_ 	c #313831",
": 	c #4A384A",
"< 	c #393439",
"[ 	c #313431",
"} 	c #393841",
"| 	c #000000",
"1 	c #293839",
"2 	c #312C31",
"3 	c #393039",
"4 	c #413C5A",
"5 	c #A49DA4",
"6 	c #9C999C",
"7 	c #AC9DAC",
"8 	c #A4A1AC",
"9 	c #9499A4",
"0 	c #A4A1B4",
"a 	c #9499AC",
"b 	c #9CA1B4",
"c 	c #9C9DAC",
"d 	c #ACA5AC",
"e 	c #A4A1A4",
"f 	c #ACA1AC",
"g 	c #293031",
"h 	c #292829",
"i 	c #20384A",
"j 	c #949594",
"k 	c #000008",
"l 	c #000408",
"m 	c #001020",
"n 	c #001429",
"o 	c #001831",
"p 	c #001829",
"q 	c #313039",
"r 	c #312831",
"s 	c #292C29",
"t 	c #293C5A",
"u 	c #A499A4",
"v 	c #000400",
"w 	c #000810",
"x 	c #081C41",
"y 	c #00346A",
"z 	c #084494",
"A 	c #08488B",
"B 	c #084C9C",
"C 	c #003462",
"D 	c #202829",
"E 	c #292429",
"F 	c #18344A",
"G 	c #949194",
"H 	c #003062",
"I 	c #31B4FF",
"J 	c #31AAFF",
"K 	c #9C959C",
"L 	c #292C31",
"M 	c #202020",
"N 	c #313031",
"O 	c #393C62",
"P 	c #9C919C",
"Q 	c #084083",
"R 	c #42B5FE",
"S 	c #31B9FF",
"T 	c #7B7D7B",
"U 	c #00386A",
"V 	c #00488B",
"W 	c #838583",
"X 	c #081831",
"Y 	c #7B717B",
"Z 	c #083473",
"` 	c #8B858B",
" .	c #5A555A",
"..	c #083873",
"+.	c #6A6D6A",
"@.	c #081839",
"#.	c #524452",
"$.	c #08448B",
"%.	c #625D62",
"&.	c #201C20",
"*.	c #083062",
"=.	c #392C39",
"-.	c #001018",
";.	c #080808",
">.	c #000410",
",.	c #101010",
"'.	c #080810",
". + @ # . # @ # . $ % $ % $ & $ % $ * $ % $ * $ % ",
"= - = - = ; > ; > , > ; > ; > ; > ; > ; = - = - = ",
"= = = ' ) ! ~ { ] ^ / ^ ( ^ / ^ ( ^ / ! ) ' = _ : ",
"< [ } | | | | | | | | | | | | | | | | | | | 1 < < ",
"2 3 4 | 5 6 7 6 8 9 0 a b a 0 c d e d 5 f | 4 g < ",
"2 h i | j | | k l m n o p o n m l | | | 6 | i q h ",
"r s t | u | v w x y z A B A z C x w v | 7 | t D 2 ",
"h E F | G | | m H I J I J I J I C m | | K | F L M ",
"N 2 O | P | l n Q J R J S J R J z n l | 5 | O g 3 ",
"| | p | T | | n U I J I J I J I V o k | W | p l | ",
"| | X | Y | l m Z | | | | J S J B o l | ` | X l | ",
"| | p |  .| | n ..I J I | I J I A o | | +.| p l | ",
"| | @.| #.| l n Q J R J | J R J $.n l | %.| @.l | ",
"| | n | 2 | | m H I J I | I J I C m | | @ | p l | ",
"| | X | &.| v w x *.Q ..Z ..Q H x w v | =.| X l | ",
"| | -.| ;.| | | >.m n n m n n m >.k | | ,.| -.k | ",
"| | | | | | | | v | l l l v l k v | | | | | '.| | ",
"| | | | | | | | | | | | | | | | | | | | | | | | | ",
"| | | | | | | | | | | | | | | | | | | | | | | | | ",
"| | | | | | | | | | | | | | | | | | | | | | | | | ",
"| | | | | | | | | | | | | | | | | | | | | | | | | ",
"| | | | | | | | | | | | | | | | | | | | | | | | | ",
"| | | | | | | | | | | | | | | | | | | | | | | | | ",
"| | | | | | | | | | | | | | | | | | | | | | | | | ",
"| | | | | | | | | | | | | | | | | | | | | | | | | "};
