/* XPM */
static char * bottom_active_xpm[] = {
"28 8 4 1",
" 	c None",
".	c #000000",
"+	c #EAB000 s active_color_1",
"@	c #212121",
"............................",
"++++++++++++++++++++++++++++",
"++++++++++++++++++++++++++++",
"@@@@@@@@@@@@@@@@@@@@@@@@@@@@",
"@@@@@@@@@@@@@@@@@@@@@@@@@@@@",
"@@@@@@@@@@@@@@@@@@@@@@@@@@@@",
"@@@@@@@@@@@@@@@@@@@@@@@@@@@@",
"@@@@@@@@@@@@@@@@@@@@@@@@@@@@"};
